<?xml version="1.0" encoding="UTF-8" standalone="no"?>
<!-- Created with Inkscape (http://www.inkscape.org/) -->

<svg
   xmlns:dc="http://purl.org/dc/elements/1.1/"
   xmlns:cc="http://creativecommons.org/ns#"
   xmlns:rdf="http://www.w3.org/1999/02/22-rdf-syntax-ns#"
   xmlns:svg="http://www.w3.org/2000/svg"
   xmlns="http://www.w3.org/2000/svg"
   xmlns:sodipodi="http://sodipodi.sourceforge.net/DTD/sodipodi-0.dtd"
   xmlns:inkscape="http://www.inkscape.org/namespaces/inkscape"
   width="110.29221mm"
   height="78.961487mm"
   viewBox="0 0 110.29221 78.961485"
   version="1.1"
   id="svg8"
   sodipodi:docname="aaa-analytfs.svg"
   inkscape:version="0.92.3 (2405546, 2018-03-11)">
  <defs
     id="defs2">
    <clipPath
       clipPathUnits="userSpaceOnUse"
       id="clipPath1267">
      <rect
         style="opacity:0.56300001;fill:#000005;fill-opacity:1;stroke:#ce29ff;stroke-width:0.81047946;stroke-linecap:round;stroke-linejoin:round;stroke-miterlimit:4;stroke-dasharray:none;stroke-dashoffset:0;stroke-opacity:1;paint-order:stroke markers fill"
         id="rect1269"
         width="86.595329"
         height="54.58918"
         x="222.57649"
         y="69.858528" />
    </clipPath>
    <clipPath
       clipPathUnits="userSpaceOnUse"
       id="clipPath1271">
      <rect
         style="opacity:0.56300001;fill:#000005;fill-opacity:1;stroke:#ce29ff;stroke-width:0.80000001;stroke-linecap:round;stroke-linejoin:round;stroke-miterlimit:4;stroke-dasharray:none;stroke-dashoffset:0;stroke-opacity:1;paint-order:stroke markers fill"
         id="rect1273"
         width="86.595329"
         height="53.186634"
         x="222.57649"
         y="77.180298" />
    </clipPath>
    <clipPath
       clipPathUnits="userSpaceOnUse"
       id="clipPath1518">
      <rect
         style="opacity:1;fill:#000000;fill-opacity:0.18652852;stroke:#da3600;stroke-width:0.50654966;stroke-linecap:round;stroke-linejoin:round;stroke-miterlimit:4;stroke-dasharray:none;stroke-dashoffset:0;stroke-opacity:1;paint-order:stroke markers fill"
         id="rect1520"
         width="110.46357"
         height="80.886215"
         x="197.27771"
         y="50.96973" />
    </clipPath>
    <clipPath
       clipPathUnits="userSpaceOnUse"
       id="clipPath1522">
      <rect
         style="opacity:1;fill:#000000;fill-opacity:0.18652852;stroke:#da3600;stroke-width:0.5;stroke-linecap:round;stroke-linejoin:round;stroke-miterlimit:4;stroke-dasharray:none;stroke-dashoffset:0;stroke-opacity:1;paint-order:stroke markers fill"
         id="rect1524"
         width="110.46357"
         height="78.808029"
         x="197.27771"
         y="58.776806" />
    </clipPath>
  </defs>
  <sodipodi:namedview
     id="base"
     pagecolor="#ffffff"
     bordercolor="#666666"
     borderopacity="1.0"
     inkscape:pageopacity="0.0"
     inkscape:pageshadow="2"
     inkscape:zoom="1.4"
     inkscape:cx="231.82892"
     inkscape:cy="192.74754"
     inkscape:document-units="mm"
     inkscape:current-layer="layer1"
     showgrid="false"
     inkscape:window-width="1235"
     inkscape:window-height="1015"
     inkscape:window-x="0"
     inkscape:window-y="0"
     inkscape:window-maximized="0"
     fit-margin-top="5"
     fit-margin-left="5"
     fit-margin-right="5"
     fit-margin-bottom="5"
     inkscape:object-paths="true" />
  <metadata
     id="metadata5">
    <rdf:RDF>
      <cc:Work
         rdf:about="">
        <dc:format>image/svg+xml</dc:format>
        <dc:type
           rdf:resource="http://purl.org/dc/dcmitype/StillImage" />
        <dc:title></dc:title>
      </cc:Work>
    </rdf:RDF>
  </metadata>
  <g
     inkscape:label="Layer 1"
     inkscape:groupmode="layer"
     id="layer1"
     transform="translate(-258.75207,-169.27122)">
    <g
       transform="translate(61.28537,110.45888)"
       id="g2450"
       clip-path="url(#clipPath1522)">
      <path
         sodipodi:nodetypes="cc"
         inkscape:connector-curvature="0"
         id="path888-5"
         d="M -136.09469,1.702951 H 675.53076"
         style="display:inline;fill:none;fill-opacity:1;stroke:#ebebeb;stroke-width:1;stroke-linecap:round;stroke-linejoin:round;stroke-miterlimit:4;stroke-dasharray:none;stroke-opacity:1" />
      <path
         sodipodi:nodetypes="cc"
         inkscape:connector-curvature="0"
         id="path888-3-9"
         d="M -135.06491,24.850458 H 676.56058"
         style="display:inline;fill:none;fill-opacity:1;stroke:#ebebeb;stroke-width:1;stroke-linecap:round;stroke-linejoin:round;stroke-miterlimit:4;stroke-dasharray:none;stroke-opacity:1" />
      <path
         sodipodi:nodetypes="cc"
         inkscape:connector-curvature="0"
         id="path888-3-1-2"
         d="m -134.03514,47.997965 h 811.6255"
         style="display:inline;fill:none;fill-opacity:1;stroke:#ebebeb;stroke-width:1;stroke-linecap:round;stroke-linejoin:round;stroke-miterlimit:4;stroke-dasharray:none;stroke-opacity:1" />
      <path
         sodipodi:nodetypes="cc"
         inkscape:connector-curvature="0"
         id="path888-2-2"
         d="M -138.15426,-44.592067 H 673.47119"
         style="display:inline;fill:none;fill-opacity:1;stroke:#ebebeb;stroke-width:1;stroke-linecap:round;stroke-linejoin:round;stroke-miterlimit:4;stroke-dasharray:none;stroke-opacity:1" />
      <path
         sodipodi:nodetypes="cc"
         inkscape:connector-curvature="0"
         id="path888-3-7-8"
         d="M -137.12448,-21.444556 H 674.50101"
         style="display:inline;fill:none;fill-opacity:1;stroke:#ebebeb;stroke-width:1;stroke-linecap:round;stroke-linejoin:round;stroke-miterlimit:4;stroke-dasharray:none;stroke-opacity:1" />
      <path
         sodipodi:nodetypes="cc"
         inkscape:connector-curvature="0"
         id="path888-9-9"
         d="M -131.97557,94.292972 H 679.64988"
         style="display:inline;fill:none;fill-opacity:1;stroke:#ebebeb;stroke-width:1;stroke-linecap:round;stroke-linejoin:round;stroke-miterlimit:4;stroke-dasharray:none;stroke-opacity:1" />
      <path
         sodipodi:nodetypes="cc"
         inkscape:connector-curvature="0"
         id="path888-3-3-7"
         d="M -130.94578,117.44048 H 680.67969"
         style="display:inline;fill:none;fill-opacity:1;stroke:#ebebeb;stroke-width:1;stroke-linecap:round;stroke-linejoin:round;stroke-miterlimit:4;stroke-dasharray:none;stroke-opacity:1" />
      <path
         sodipodi:nodetypes="cc"
         inkscape:connector-curvature="0"
         id="path888-3-1-6-36"
         d="M -129.91601,140.58799 H 681.70952"
         style="display:inline;fill:none;fill-opacity:1;stroke:#ebebeb;stroke-width:1;stroke-linecap:round;stroke-linejoin:round;stroke-miterlimit:4;stroke-dasharray:none;stroke-opacity:1" />
      <path
         sodipodi:nodetypes="cc"
         inkscape:connector-curvature="0"
         id="path888-3-7-6-1"
         d="M -133.00534,71.145472 H 678.62017"
         style="display:inline;fill:none;fill-opacity:1;stroke:#ebebeb;stroke-width:1;stroke-linecap:round;stroke-linejoin:round;stroke-miterlimit:4;stroke-dasharray:none;stroke-opacity:1" />
      <path
         sodipodi:nodetypes="cc"
         inkscape:connector-curvature="0"
         id="path888-26-2"
         d="M -127.85644,186.883 H 683.76904"
         style="display:inline;fill:none;fill-opacity:1;stroke:#ebebeb;stroke-width:1;stroke-linecap:round;stroke-linejoin:round;stroke-miterlimit:4;stroke-dasharray:none;stroke-opacity:1" />
      <path
         sodipodi:nodetypes="cc"
         inkscape:connector-curvature="0"
         id="path888-3-18-9"
         d="M -126.82666,210.03051 H 684.79888"
         style="display:inline;fill:none;fill-opacity:1;stroke:#ebebeb;stroke-width:1;stroke-linecap:round;stroke-linejoin:round;stroke-miterlimit:4;stroke-dasharray:none;stroke-opacity:1" />
      <path
         sodipodi:nodetypes="cc"
         inkscape:connector-curvature="0"
         id="path888-3-1-7-3"
         d="M -125.79688,233.178 H 685.82866"
         style="display:inline;fill:none;fill-opacity:1;stroke:#ebebeb;stroke-width:1;stroke-linecap:round;stroke-linejoin:round;stroke-miterlimit:4;stroke-dasharray:none;stroke-opacity:1" />
      <path
         sodipodi:nodetypes="cc"
         inkscape:connector-curvature="0"
         id="path888-3-7-2-1"
         d="M -128.88623,163.73549 H 682.73931"
         style="display:inline;fill:none;fill-opacity:1;stroke:#ebebeb;stroke-width:1;stroke-linecap:round;stroke-linejoin:round;stroke-miterlimit:4;stroke-dasharray:none;stroke-opacity:1" />
      <path
         sodipodi:nodetypes="cc"
         inkscape:connector-curvature="0"
         id="path888-9-0-9"
         d="M -123.73731,279.47302 H 687.88818"
         style="display:inline;fill:none;fill-opacity:1;stroke:#ebebeb;stroke-width:1;stroke-linecap:round;stroke-linejoin:round;stroke-miterlimit:4;stroke-dasharray:none;stroke-opacity:1" />
      <path
         sodipodi:nodetypes="cc"
         inkscape:connector-curvature="0"
         id="path888-3-3-2-4"
         d="M -122.70754,302.62055 H 688.918"
         style="display:inline;fill:none;fill-opacity:1;stroke:#ebebeb;stroke-width:1;stroke-linecap:round;stroke-linejoin:round;stroke-miterlimit:4;stroke-dasharray:none;stroke-opacity:1" />
      <path
         sodipodi:nodetypes="cc"
         inkscape:connector-curvature="0"
         id="path888-3-1-6-3-7"
         d="M -121.67774,325.76804 H 689.94778"
         style="display:inline;fill:none;fill-opacity:1;stroke:#ebebeb;stroke-width:1;stroke-linecap:round;stroke-linejoin:round;stroke-miterlimit:4;stroke-dasharray:none;stroke-opacity:1" />
      <path
         sodipodi:nodetypes="cc"
         inkscape:connector-curvature="0"
         id="path888-3-7-6-7-8"
         d="M -124.76709,256.32553 H 686.85843"
         style="display:inline;fill:none;fill-opacity:1;stroke:#ebebeb;stroke-width:1;stroke-linecap:round;stroke-linejoin:round;stroke-miterlimit:4;stroke-dasharray:none;stroke-opacity:1" />
    </g>
    <g
       id="g2354"
       transform="matrix(1,0,0,0.97430725,61.28537,119.57551)"
       clip-path="url(#clipPath1518)">
      <path
         sodipodi:nodetypes="cc"
         inkscape:connector-curvature="0"
         id="path888"
         d="M -41.839886,353.71825 V -85.647713"
         style="display:inline;fill:none;fill-opacity:1;stroke:#ebebeb;stroke-width:1;stroke-linecap:round;stroke-linejoin:round;stroke-miterlimit:4;stroke-dasharray:none;stroke-opacity:1" />
      <path
         sodipodi:nodetypes="cc"
         inkscape:connector-curvature="0"
         id="path888-3"
         d="M -18.692379,353.16079 V -86.205198"
         style="display:inline;fill:none;fill-opacity:1;stroke:#ebebeb;stroke-width:1;stroke-linecap:round;stroke-linejoin:round;stroke-miterlimit:4;stroke-dasharray:none;stroke-opacity:1" />
      <path
         sodipodi:nodetypes="cc"
         inkscape:connector-curvature="0"
         id="path888-3-1"
         d="M 4.455127,352.60333 V -86.762665"
         style="display:inline;fill:none;fill-opacity:1;stroke:#ebebeb;stroke-width:1;stroke-linecap:round;stroke-linejoin:round;stroke-miterlimit:4;stroke-dasharray:none;stroke-opacity:1" />
      <path
         sodipodi:nodetypes="cc"
         inkscape:connector-curvature="0"
         id="path888-2"
         d="M -88.1349,354.83318 V -84.532791"
         style="display:inline;fill:none;fill-opacity:1;stroke:#ebebeb;stroke-width:1;stroke-linecap:round;stroke-linejoin:round;stroke-miterlimit:4;stroke-dasharray:none;stroke-opacity:1" />
      <path
         sodipodi:nodetypes="cc"
         inkscape:connector-curvature="0"
         id="path888-3-7"
         d="M -64.987393,354.27572 V -85.090277"
         style="display:inline;fill:none;fill-opacity:1;stroke:#ebebeb;stroke-width:1;stroke-linecap:round;stroke-linejoin:round;stroke-miterlimit:4;stroke-dasharray:none;stroke-opacity:1" />
      <path
         sodipodi:nodetypes="cc"
         inkscape:connector-curvature="0"
         id="path888-9"
         d="M 50.750137,351.4884 V -87.877571"
         style="display:inline;fill:none;fill-opacity:1;stroke:#ebebeb;stroke-width:1;stroke-linecap:round;stroke-linejoin:round;stroke-miterlimit:4;stroke-dasharray:none;stroke-opacity:1" />
      <path
         sodipodi:nodetypes="cc"
         inkscape:connector-curvature="0"
         id="path888-3-3"
         d="M 73.897647,350.93094 V -88.435056"
         style="display:inline;fill:none;fill-opacity:1;stroke:#ebebeb;stroke-width:1;stroke-linecap:round;stroke-linejoin:round;stroke-miterlimit:4;stroke-dasharray:none;stroke-opacity:1" />
      <path
         sodipodi:nodetypes="cc"
         inkscape:connector-curvature="0"
         id="path888-3-1-6"
         d="M 97.045157,350.37348 V -88.992524"
         style="display:inline;fill:none;fill-opacity:1;stroke:#ebebeb;stroke-width:1;stroke-linecap:round;stroke-linejoin:round;stroke-miterlimit:4;stroke-dasharray:none;stroke-opacity:1" />
      <path
         sodipodi:nodetypes="cc"
         inkscape:connector-curvature="0"
         id="path888-3-7-6"
         d="M 27.602637,352.04586 V -87.320135"
         style="display:inline;fill:none;fill-opacity:1;stroke:#ebebeb;stroke-width:1;stroke-linecap:round;stroke-linejoin:round;stroke-miterlimit:4;stroke-dasharray:none;stroke-opacity:1" />
      <path
         sodipodi:nodetypes="cc"
         inkscape:connector-curvature="0"
         id="path888-26"
         d="M 143.34017,349.25855 V -90.107425"
         style="display:inline;fill:none;fill-opacity:1;stroke:#ebebeb;stroke-width:1;stroke-linecap:round;stroke-linejoin:round;stroke-miterlimit:4;stroke-dasharray:none;stroke-opacity:1" />
      <path
         sodipodi:nodetypes="cc"
         inkscape:connector-curvature="0"
         id="path888-3-18"
         d="M 166.48768,348.70109 V -90.664911"
         style="display:inline;fill:none;fill-opacity:1;stroke:#ebebeb;stroke-width:1;stroke-linecap:round;stroke-linejoin:round;stroke-miterlimit:4;stroke-dasharray:none;stroke-opacity:1" />
      <path
         sodipodi:nodetypes="cc"
         inkscape:connector-curvature="0"
         id="path888-3-1-7"
         d="M 189.63517,348.14362 V -91.222378"
         style="display:inline;fill:none;fill-opacity:1;stroke:#ebebeb;stroke-width:1;stroke-linecap:round;stroke-linejoin:round;stroke-miterlimit:4;stroke-dasharray:none;stroke-opacity:1" />
      <path
         sodipodi:nodetypes="cc"
         inkscape:connector-curvature="0"
         id="path888-3-7-2"
         d="M 120.19266,349.81601 V -89.549989"
         style="display:inline;fill:none;fill-opacity:1;stroke:#ebebeb;stroke-width:1;stroke-linecap:round;stroke-linejoin:round;stroke-miterlimit:4;stroke-dasharray:none;stroke-opacity:1" />
      <path
         sodipodi:nodetypes="cc"
         inkscape:connector-curvature="0"
         id="path888-9-0"
         d="M 235.93019,347.0287 V -92.337284"
         style="display:inline;fill:none;fill-opacity:1;stroke:#ebebeb;stroke-width:1;stroke-linecap:round;stroke-linejoin:round;stroke-miterlimit:4;stroke-dasharray:none;stroke-opacity:1" />
      <path
         sodipodi:nodetypes="cc"
         inkscape:connector-curvature="0"
         id="path888-3-3-2"
         d="M 259.07772,346.47123 V -92.894769"
         style="display:inline;fill:none;fill-opacity:1;stroke:#ebebeb;stroke-width:1;stroke-linecap:round;stroke-linejoin:round;stroke-miterlimit:4;stroke-dasharray:none;stroke-opacity:1" />
      <path
         sodipodi:nodetypes="cc"
         inkscape:connector-curvature="0"
         id="path888-3-1-6-3"
         d="M 282.22521,345.91377 V -93.452236"
         style="display:inline;fill:none;fill-opacity:1;stroke:#ebebeb;stroke-width:1;stroke-linecap:round;stroke-linejoin:round;stroke-miterlimit:4;stroke-dasharray:none;stroke-opacity:1" />
      <path
         sodipodi:nodetypes="cc"
         inkscape:connector-curvature="0"
         id="path888-3-7-6-7"
         d="M 212.7827,347.58616 V -91.779848"
         style="display:inline;fill:none;fill-opacity:1;stroke:#ebebeb;stroke-width:1;stroke-linecap:round;stroke-linejoin:round;stroke-miterlimit:4;stroke-dasharray:none;stroke-opacity:1" />
      <path
         sodipodi:nodetypes="cc"
         inkscape:connector-curvature="0"
         id="path888-93"
         d="M 328.52022,344.79885 V -94.56712"
         style="display:inline;fill:none;fill-opacity:1;stroke:#ebebeb;stroke-width:1;stroke-linecap:round;stroke-linejoin:round;stroke-miterlimit:4;stroke-dasharray:none;stroke-opacity:1" />
      <path
         sodipodi:nodetypes="cc"
         inkscape:connector-curvature="0"
         id="path888-3-74"
         d="M 351.66772,344.24138 V -95.124605"
         style="display:inline;fill:none;fill-opacity:1;stroke:#ebebeb;stroke-width:1;stroke-linecap:round;stroke-linejoin:round;stroke-miterlimit:4;stroke-dasharray:none;stroke-opacity:1" />
      <path
         sodipodi:nodetypes="cc"
         inkscape:connector-curvature="0"
         id="path888-3-1-5"
         d="M 374.81523,343.68392 V -95.682072"
         style="display:inline;fill:none;fill-opacity:1;stroke:#ebebeb;stroke-width:1;stroke-linecap:round;stroke-linejoin:round;stroke-miterlimit:4;stroke-dasharray:none;stroke-opacity:1" />
      <path
         sodipodi:nodetypes="cc"
         inkscape:connector-curvature="0"
         id="path888-3-7-4"
         d="M 305.37271,345.35631 V -94.009684"
         style="display:inline;fill:none;fill-opacity:1;stroke:#ebebeb;stroke-width:1;stroke-linecap:round;stroke-linejoin:round;stroke-miterlimit:4;stroke-dasharray:none;stroke-opacity:1" />
      <path
         sodipodi:nodetypes="cc"
         inkscape:connector-curvature="0"
         id="path888-9-7"
         d="M 421.11024,342.56899 V -96.796978"
         style="display:inline;fill:none;fill-opacity:1;stroke:#ebebeb;stroke-width:1;stroke-linecap:round;stroke-linejoin:round;stroke-miterlimit:4;stroke-dasharray:none;stroke-opacity:1" />
      <path
         sodipodi:nodetypes="cc"
         inkscape:connector-curvature="0"
         id="path888-3-3-4"
         d="M 444.25775,342.01153 V -97.354463"
         style="display:inline;fill:none;fill-opacity:1;stroke:#ebebeb;stroke-width:1;stroke-linecap:round;stroke-linejoin:round;stroke-miterlimit:4;stroke-dasharray:none;stroke-opacity:1" />
      <path
         sodipodi:nodetypes="cc"
         inkscape:connector-curvature="0"
         id="path888-3-1-6-4"
         d="M 467.40526,341.45407 V -97.911931"
         style="display:inline;fill:none;fill-opacity:1;stroke:#ebebeb;stroke-width:1;stroke-linecap:round;stroke-linejoin:round;stroke-miterlimit:4;stroke-dasharray:none;stroke-opacity:1" />
      <path
         sodipodi:nodetypes="cc"
         inkscape:connector-curvature="0"
         id="path888-3-7-6-3"
         d="M 397.96274,343.12646 V -96.239542"
         style="display:inline;fill:none;fill-opacity:1;stroke:#ebebeb;stroke-width:1;stroke-linecap:round;stroke-linejoin:round;stroke-miterlimit:4;stroke-dasharray:none;stroke-opacity:1" />
      <path
         sodipodi:nodetypes="cc"
         inkscape:connector-curvature="0"
         id="path888-26-0"
         d="M 513.70027,340.33914 V -99.026832"
         style="display:inline;fill:none;fill-opacity:1;stroke:#ebebeb;stroke-width:1;stroke-linecap:round;stroke-linejoin:round;stroke-miterlimit:4;stroke-dasharray:none;stroke-opacity:1" />
      <path
         sodipodi:nodetypes="cc"
         inkscape:connector-curvature="0"
         id="path888-3-18-7"
         d="M 536.84778,339.78168 V -99.584318"
         style="display:inline;fill:none;fill-opacity:1;stroke:#ebebeb;stroke-width:1;stroke-linecap:round;stroke-linejoin:round;stroke-miterlimit:4;stroke-dasharray:none;stroke-opacity:1" />
      <path
         sodipodi:nodetypes="cc"
         inkscape:connector-curvature="0"
         id="path888-3-1-7-8"
         d="m 559.99527,339.22422 v -439.366"
         style="display:inline;fill:none;fill-opacity:1;stroke:#ebebeb;stroke-width:1;stroke-linecap:round;stroke-linejoin:round;stroke-miterlimit:4;stroke-dasharray:none;stroke-opacity:1" />
      <path
         sodipodi:nodetypes="cc"
         inkscape:connector-curvature="0"
         id="path888-3-7-2-6"
         d="M 490.55276,340.89661 V -98.469396"
         style="display:inline;fill:none;fill-opacity:1;stroke:#ebebeb;stroke-width:1;stroke-linecap:round;stroke-linejoin:round;stroke-miterlimit:4;stroke-dasharray:none;stroke-opacity:1" />
      <path
         sodipodi:nodetypes="cc"
         inkscape:connector-curvature="0"
         id="path888-9-0-8"
         d="M 606.29029,338.10929 V -101.25669"
         style="display:inline;fill:none;fill-opacity:1;stroke:#ebebeb;stroke-width:1;stroke-linecap:round;stroke-linejoin:round;stroke-miterlimit:4;stroke-dasharray:none;stroke-opacity:1" />
      <path
         sodipodi:nodetypes="cc"
         inkscape:connector-curvature="0"
         id="path888-3-3-2-8"
         d="M 629.43782,337.55183 V -101.81418"
         style="display:inline;fill:none;fill-opacity:1;stroke:#ebebeb;stroke-width:1;stroke-linecap:round;stroke-linejoin:round;stroke-miterlimit:4;stroke-dasharray:none;stroke-opacity:1" />
      <path
         sodipodi:nodetypes="cc"
         inkscape:connector-curvature="0"
         id="path888-3-1-6-3-4"
         d="m 652.58531,336.99436 v -439.366"
         style="display:inline;fill:none;fill-opacity:1;stroke:#ebebeb;stroke-width:1;stroke-linecap:round;stroke-linejoin:round;stroke-miterlimit:4;stroke-dasharray:none;stroke-opacity:1" />
      <path
         sodipodi:nodetypes="cc"
         inkscape:connector-curvature="0"
         id="path888-3-7-6-7-3"
         d="m 583.1428,338.66675 v -439.366"
         style="display:inline;fill:none;fill-opacity:1;stroke:#ebebeb;stroke-width:1;stroke-linecap:round;stroke-linejoin:round;stroke-miterlimit:4;stroke-dasharray:none;stroke-opacity:1" />
    </g>
  </g>
  <g
     inkscape:groupmode="layer"
     id="layer2"
     inkscape:label="Layer 2"
     transform="translate(-258.75207,-169.27122)">
    <circle
       style="opacity:1;fill:#000000;fill-opacity:0.18652852;stroke:#000000;stroke-width:0.52232522;stroke-linecap:round;stroke-linejoin:round;stroke-miterlimit:4;stroke-dasharray:none;stroke-dashoffset:0;stroke-opacity:1;paint-order:stroke markers fill"
       id="path1348"
       cx="282.94351"
       cy="203.33505"
       r="8.5820599" />
    <path
       style="fill:none;stroke:#000000;stroke-width:0.40000001;stroke-linecap:butt;stroke-linejoin:miter;stroke-miterlimit:4;stroke-dasharray:none;stroke-opacity:1"
       d="m 264.10056,229.27277 c -1.30294,-5.57925 6.34765,-9.32103 7.55036,-10.72419 1.20272,-1.40317 3.87541,-2.63929 1.00227,-6.11379 -2.87315,-3.47451 -5.47903,-5.41221 -2.33861,-7.61718 3.14041,-2.20498 3.20723,-1.5368 3.4745,-3.20724 0.26727,-1.67043 0.60136,-1.9377 0.93544,-2.20497 0.33409,-0.26727 -0.53454,-2.60588 0.66818,-3.34087 1.20271,-0.73499 1.26953,-1.60362 3.87541,-1.5368 2.60587,0.0668 8.28535,-1.33635 11.02486,-5.54584 2.73952,-4.2095 6.81538,-9.02035 11.8935,-6.54811 5.07812,2.47225 16.57071,-7.01582 20.7802,-4.27631 4.2095,2.73951 0.80181,4.87767 -1.06908,9.68852 -1.87088,4.81085 -0.4009,8.35217 0.33409,9.62171 0.73499,1.26952 5.41221,1.9377 -5.14494,10.35669 -10.55714,8.41899 -9.28761,10.55714 -11.22532,18.8425 -1.9377,8.28535 -8.01808,17.57297 -14.69982,16.23662 -6.68174,-1.33634 -4.87767,-2.87314 -4.94449,-7.28309 -0.0668,-4.40995 -0.66817,-6.61492 -7.48354,-4.27631 -6.81537,2.33861 -13.96483,0.60135 -14.63301,-2.07134 z"
       id="path1320"
       inkscape:connector-curvature="0" />
    <path
       style="fill:none;stroke:#da3600;stroke-width:0.5;stroke-linecap:round;stroke-linejoin:round;stroke-miterlimit:4;stroke-dasharray:none;stroke-opacity:1"
       d="m 283.07294,203.51328 c 1.70384,7.28309 6.38482,14.03304 8.69002,13.16441 2.3052,-0.86862 1.30294,-5.57925 1.06907,-8.98694 -0.23386,-3.40768 -0.23386,-10.55714 2.2718,-9.75533 2.50565,0.8018 2.87314,4.04245 3.107,10.3901 0.23387,6.34765 1.93771,7.11605 3.87541,7.01582 1.93771,-0.10022 2.77292,-5.57925 0.93545,-14.43255 -1.83748,-8.8533 0.7684,-11.39236 3.44109,-11.79327 2.6727,-0.4009 3.67496,1.70384 3.70837,4.6104 0.0334,2.90656 -0.56795,13.0628 4.74403,10.28988"
       id="path1322"
       inkscape:connector-curvature="0"
       sodipodi:nodetypes="cccccccccc" />
    <path
       style="fill:none;stroke:#da3600;stroke-width:0.5;stroke-linecap:round;stroke-linejoin:round;stroke-miterlimit:4;stroke-dasharray:none;stroke-opacity:1"
       d="m 301.21762,206.45463 c 0.96885,-0.93544 2.17922,-3.57605 2.17922,-3.57605 0,0 0.46006,2.74084 2.63163,2.87447"
       id="path1326"
       inkscape:connector-curvature="0" />
    <path
       style="fill:none;stroke:#000000;stroke-width:0.5;stroke-linecap:round;stroke-linejoin:round;stroke-miterlimit:4;stroke-dasharray:none;stroke-opacity:1"
       d="m 285.81621,200.54129 c 7.08264,-8.01808 15.23124,-14.48204 26.39286,-15.10072 11.16163,-0.61868 27.6624,-2.93997 36.28184,-0.80181"
       id="path1328"
       inkscape:connector-curvature="0" />
    <path
       style="fill:none;stroke:#000000;stroke-width:0.5;stroke-linecap:round;stroke-linejoin:round;stroke-miterlimit:4;stroke-dasharray:none;stroke-opacity:1"
       d="m 347.87285,182.25004 c 0.95215,1.1526 2.62259,1.98781 2.43884,2.65599 -0.18375,0.66817 -4.10927,2.42213 -4.10927,2.42213"
       id="path1330"
       inkscape:connector-curvature="0" />
    <path
       style="fill:none;stroke:#000000;stroke-width:0.5;stroke-linecap:round;stroke-linejoin:round;stroke-miterlimit:4;stroke-dasharray:none;stroke-opacity:1"
       d="m 337.40142,177.11869 c 1.1103,-0.66146 1.39379,-2.85845 0.0236,-2.57497 -1.37016,0.28349 -1.29929,1.06306 -0.11812,6.8272"
       id="path1332"
       inkscape:connector-curvature="0" />
    <path
       style="fill:none;stroke:#000000;stroke-width:0.5;stroke-linecap:round;stroke-linejoin:round;stroke-miterlimit:4;stroke-dasharray:none;stroke-opacity:1"
       d="m 335.2753,178.70146 2.97657,0.0472"
       id="path1334"
       inkscape:connector-curvature="0" />
    <path
       style="fill:none;stroke:#000000;stroke-width:0.5;stroke-linecap:round;stroke-linejoin:round;stroke-miterlimit:4;stroke-dasharray:none;stroke-opacity:1"
       d="m 341.27568,178.04001 c -0.85045,0.0472 -1.79539,0.87406 -0.8977,1.65364 0.8977,0.77958 2.05525,0.0945 2.17337,-0.30711 0.11811,-0.40159 -0.21262,-1.39378 -1.27567,-1.34653 z"
       id="path1336"
       inkscape:connector-curvature="0" />
    <path
       style="fill:none;stroke:#000000;stroke-width:0.5;stroke-linecap:round;stroke-linejoin:round;stroke-miterlimit:4;stroke-dasharray:none;stroke-opacity:1"
       d="m 363.09051,185.90829 c -0.43431,-1.10249 -3.34087,-2.07134 -5.27857,-0.13364 -1.93771,1.93771 0.60135,4.17609 1.97111,4.30972 1.36976,0.13364 3.77518,-0.33408 4.00904,-0.63476"
       id="path1338"
       inkscape:connector-curvature="0" />
    <path
       style="fill:none;stroke:#000000;stroke-width:0.5;stroke-linecap:round;stroke-linejoin:round;stroke-miterlimit:4;stroke-dasharray:none;stroke-opacity:1"
       d="m 359.13274,184.91133 0.55892,5.16129"
       id="path1340"
       inkscape:connector-curvature="0" />
    <path
       style="fill:none;stroke:#000000;stroke-width:0.40000001;stroke-linecap:round;stroke-linejoin:round;stroke-miterlimit:4;stroke-dasharray:none;stroke-opacity:1"
       d="m 316.36846,200.44107 c 0.0334,-0.56795 3.17382,-0.85192 2.95667,-0.20045 -0.21716,0.65147 -2.45554,3.14041 -1.98782,3.42439 0.46772,0.28397 2.95667,-0.3675 3.20723,-0.56795"
       id="path1342"
       inkscape:connector-curvature="0" />
    <path
       style="fill:none;stroke:#000000;stroke-width:0.40000001;stroke-linecap:round;stroke-linejoin:round;stroke-miterlimit:4;stroke-dasharray:none;stroke-opacity:1"
       d="m 317.08674,201.82753 c 0.0167,-0.26727 1.00226,-0.40091 2.92326,-0.35079"
       id="path1346"
       inkscape:connector-curvature="0" />
    <circle
       style="opacity:1;fill:#000005;fill-opacity:1;stroke:#000000;stroke-width:0.40000001;stroke-linecap:round;stroke-linejoin:round;stroke-miterlimit:4;stroke-dasharray:none;stroke-dashoffset:0;stroke-opacity:1;paint-order:stroke markers fill"
       id="path1350"
       cx="283.09097"
       cy="203.57703"
       r="0.8976934" />
    <circle
       style="opacity:1;fill:#000005;fill-opacity:1;stroke:#000000;stroke-width:0.40000001;stroke-linecap:round;stroke-linejoin:round;stroke-miterlimit:4;stroke-dasharray:none;stroke-dashoffset:0;stroke-opacity:1;paint-order:stroke markers fill"
       id="path1350-3"
       cx="314.98273"
       cy="204.0495"
       r="0.89769346" />
    <path
       style="fill:none;stroke:#000000;stroke-width:0.40000001;stroke-linecap:round;stroke-linejoin:round;stroke-miterlimit:4;stroke-dasharray:none;stroke-opacity:1"
       d="m 277.7778,204.52552 c 0.0298,-0.50635 2.82955,-0.75952 2.63595,-0.17871 -0.1936,0.5808 -2.18918,2.79977 -1.7722,3.05294 0.41699,0.25317 1.92726,-0.43393 2.15064,-0.61264"
       id="path1342-6"
       inkscape:connector-curvature="0"
       sodipodi:nodetypes="cccc" />
    <path
       style="fill:none;stroke:#000000;stroke-width:0.40000001;stroke-linecap:round;stroke-linejoin:round;stroke-miterlimit:4;stroke-dasharray:none;stroke-opacity:1"
       d="m 278.41816,205.76159 c 0.0149,-0.23828 0.89355,-0.35743 2.60618,-0.31274"
       id="path1346-7"
       inkscape:connector-curvature="0"
       sodipodi:nodetypes="cc" />
    <path
       style="fill:none;stroke:#000000;stroke-width:0.40000001;stroke-linecap:round;stroke-linejoin:round;stroke-miterlimit:4;stroke-dasharray:none;stroke-opacity:1"
       d="m 281.99247,206.61264 c -0.6142,0.25986 -1.35834,0.42522 -1.05124,1.13393 0.3071,0.7087 0.67327,0.88588 1.004,0.81501 0.33073,-0.0709 0.92132,-0.6024 0.87407,-1.11031 -0.0473,-0.5079 -0.56696,-0.87407 -0.82683,-0.83863 z"
       id="path1385"
       inkscape:connector-curvature="0" />
  </g>
</svg>
