<?xml version="1.0" encoding="UTF-8" standalone="no"?>
<!-- Created with Inkscape (http://www.inkscape.org/) -->

<svg
   xmlns:dc="http://purl.org/dc/elements/1.1/"
   xmlns:cc="http://creativecommons.org/ns#"
   xmlns:rdf="http://www.w3.org/1999/02/22-rdf-syntax-ns#"
   xmlns:svg="http://www.w3.org/2000/svg"
   xmlns="http://www.w3.org/2000/svg"
   xmlns:sodipodi="http://sodipodi.sourceforge.net/DTD/sodipodi-0.dtd"
   xmlns:inkscape="http://www.inkscape.org/namespaces/inkscape"
   width="278.34167mm"
   height="199.31944mm"
   viewBox="0 0 278.34167 199.31944"
   version="1.1"
   id="svg3732"
   sodipodi:docname="konvlaurent.svg"
   inkscape:version="0.92.3 (2405546, 2018-03-11)">
  <defs
     id="defs3726">
    <clipPath
       clipPathUnits="userSpaceOnUse"
       id="clipPath4802">
      <rect
         style="opacity:1;fill:none;fill-opacity:0.45098039;stroke:#c3e2fd;stroke-width:4.05239725;stroke-linecap:round;stroke-linejoin:round;stroke-miterlimit:4;stroke-dasharray:none;stroke-dashoffset:0;stroke-opacity:1;paint-order:stroke markers fill"
         id="rect4804"
         width="278.76212"
         height="206.01245"
         x="12.636274"
         y="20.892847" />
    </clipPath>
    <clipPath
       clipPathUnits="userSpaceOnUse"
       id="clipPath4806">
      <rect
         style="opacity:1;fill:none;fill-opacity:0.45098039;stroke:#c3e2fd;stroke-width:4;stroke-linecap:round;stroke-linejoin:round;stroke-miterlimit:4;stroke-dasharray:none;stroke-dashoffset:0;stroke-opacity:1;paint-order:stroke markers fill"
         id="rect4808"
         width="278.76212"
         height="200.71942"
         x="12.636274"
         y="29.472692" />
    </clipPath>
  </defs>
  <sodipodi:namedview
     id="base"
     pagecolor="#ffffff"
     bordercolor="#666666"
     borderopacity="1.0"
     inkscape:pageopacity="0.0"
     inkscape:pageshadow="2"
     inkscape:zoom="0.98994949"
     inkscape:cx="600.66174"
     inkscape:cy="391.2011"
     inkscape:document-units="mm"
     inkscape:current-layer="layer1"
     showgrid="false"
     fit-margin-top="0"
     fit-margin-left="0"
     fit-margin-right="0"
     fit-margin-bottom="0"
     inkscape:window-width="1920"
     inkscape:window-height="1015"
     inkscape:window-x="0"
     inkscape:window-y="0"
     inkscape:window-maximized="1" />
  <metadata
     id="metadata3729">
    <rdf:RDF>
      <cc:Work
         rdf:about="">
        <dc:format>image/svg+xml</dc:format>
        <dc:type
           rdf:resource="http://purl.org/dc/dcmitype/StillImage" />
        <dc:title></dc:title>
      </cc:Work>
    </rdf:RDF>
  </metadata>
  <g
     inkscape:label="Layer 1"
     inkscape:groupmode="layer"
     id="layer1"
     transform="translate(25.400009,-45.393848)"
     style="opacity:1">
    <g
       transform="translate(-37.769014,15.590258)"
       id="g2450"
       clip-path="url(#clipPath4806)">
      <path
         sodipodi:nodetypes="cc"
         inkscape:connector-curvature="0"
         id="path888-5"
         d="M -136.09469,1.702951 H 675.53076"
         style="display:inline;fill:none;fill-opacity:1;stroke:#ebebeb;stroke-width:1;stroke-linecap:round;stroke-linejoin:round;stroke-miterlimit:4;stroke-dasharray:none;stroke-opacity:1" />
      <path
         sodipodi:nodetypes="cc"
         inkscape:connector-curvature="0"
         id="path888-3-9"
         d="M -135.06491,24.850458 H 676.56058"
         style="display:inline;fill:none;fill-opacity:1;stroke:#ebebeb;stroke-width:1;stroke-linecap:round;stroke-linejoin:round;stroke-miterlimit:4;stroke-dasharray:none;stroke-opacity:1" />
      <path
         sodipodi:nodetypes="cc"
         inkscape:connector-curvature="0"
         id="path888-3-1-2"
         d="m -134.03514,47.997965 h 811.6255"
         style="display:inline;fill:none;fill-opacity:1;stroke:#ebebeb;stroke-width:1;stroke-linecap:round;stroke-linejoin:round;stroke-miterlimit:4;stroke-dasharray:none;stroke-opacity:1" />
      <path
         sodipodi:nodetypes="cc"
         inkscape:connector-curvature="0"
         id="path888-2-2"
         d="M -138.15426,-44.592067 H 673.47119"
         style="display:inline;fill:none;fill-opacity:1;stroke:#ebebeb;stroke-width:1;stroke-linecap:round;stroke-linejoin:round;stroke-miterlimit:4;stroke-dasharray:none;stroke-opacity:1" />
      <path
         sodipodi:nodetypes="cc"
         inkscape:connector-curvature="0"
         id="path888-3-7-8"
         d="M -137.12448,-21.444556 H 674.50101"
         style="display:inline;fill:none;fill-opacity:1;stroke:#ebebeb;stroke-width:1;stroke-linecap:round;stroke-linejoin:round;stroke-miterlimit:4;stroke-dasharray:none;stroke-opacity:1" />
      <path
         sodipodi:nodetypes="cc"
         inkscape:connector-curvature="0"
         id="path888-9-9"
         d="M -131.97557,94.292972 H 679.64988"
         style="display:inline;fill:none;fill-opacity:1;stroke:#ebebeb;stroke-width:1;stroke-linecap:round;stroke-linejoin:round;stroke-miterlimit:4;stroke-dasharray:none;stroke-opacity:1" />
      <path
         sodipodi:nodetypes="cc"
         inkscape:connector-curvature="0"
         id="path888-3-3-7"
         d="M -130.94578,117.44048 H 680.67969"
         style="display:inline;fill:none;fill-opacity:1;stroke:#ebebeb;stroke-width:1;stroke-linecap:round;stroke-linejoin:round;stroke-miterlimit:4;stroke-dasharray:none;stroke-opacity:1" />
      <path
         sodipodi:nodetypes="cc"
         inkscape:connector-curvature="0"
         id="path888-3-1-6-36"
         d="M -129.91601,140.58799 H 681.70952"
         style="display:inline;fill:none;fill-opacity:1;stroke:#ebebeb;stroke-width:1;stroke-linecap:round;stroke-linejoin:round;stroke-miterlimit:4;stroke-dasharray:none;stroke-opacity:1" />
      <path
         sodipodi:nodetypes="cc"
         inkscape:connector-curvature="0"
         id="path888-3-7-6-1"
         d="M -133.00534,71.145472 H 678.62017"
         style="display:inline;fill:none;fill-opacity:1;stroke:#ebebeb;stroke-width:1;stroke-linecap:round;stroke-linejoin:round;stroke-miterlimit:4;stroke-dasharray:none;stroke-opacity:1" />
      <path
         sodipodi:nodetypes="cc"
         inkscape:connector-curvature="0"
         id="path888-26-2"
         d="M -127.85644,186.883 H 683.76904"
         style="display:inline;fill:none;fill-opacity:1;stroke:#ebebeb;stroke-width:1;stroke-linecap:round;stroke-linejoin:round;stroke-miterlimit:4;stroke-dasharray:none;stroke-opacity:1" />
      <path
         sodipodi:nodetypes="cc"
         inkscape:connector-curvature="0"
         id="path888-3-18-9"
         d="M -126.82666,210.03051 H 684.79888"
         style="display:inline;fill:none;fill-opacity:1;stroke:#ebebeb;stroke-width:1;stroke-linecap:round;stroke-linejoin:round;stroke-miterlimit:4;stroke-dasharray:none;stroke-opacity:1" />
      <path
         sodipodi:nodetypes="cc"
         inkscape:connector-curvature="0"
         id="path888-3-1-7-3"
         d="M -125.79688,233.178 H 685.82866"
         style="display:inline;fill:none;fill-opacity:1;stroke:#ebebeb;stroke-width:1;stroke-linecap:round;stroke-linejoin:round;stroke-miterlimit:4;stroke-dasharray:none;stroke-opacity:1" />
      <path
         sodipodi:nodetypes="cc"
         inkscape:connector-curvature="0"
         id="path888-3-7-2-1"
         d="M -128.88623,163.73549 H 682.73931"
         style="display:inline;fill:none;fill-opacity:1;stroke:#ebebeb;stroke-width:1;stroke-linecap:round;stroke-linejoin:round;stroke-miterlimit:4;stroke-dasharray:none;stroke-opacity:1" />
      <path
         sodipodi:nodetypes="cc"
         inkscape:connector-curvature="0"
         id="path888-9-0-9"
         d="M -123.73731,279.47302 H 687.88818"
         style="display:inline;fill:none;fill-opacity:1;stroke:#ebebeb;stroke-width:1;stroke-linecap:round;stroke-linejoin:round;stroke-miterlimit:4;stroke-dasharray:none;stroke-opacity:1" />
      <path
         sodipodi:nodetypes="cc"
         inkscape:connector-curvature="0"
         id="path888-3-3-2-4"
         d="M -122.70754,302.62055 H 688.918"
         style="display:inline;fill:none;fill-opacity:1;stroke:#ebebeb;stroke-width:1;stroke-linecap:round;stroke-linejoin:round;stroke-miterlimit:4;stroke-dasharray:none;stroke-opacity:1" />
      <path
         sodipodi:nodetypes="cc"
         inkscape:connector-curvature="0"
         id="path888-3-1-6-3-7"
         d="M -121.67774,325.76804 H 689.94778"
         style="display:inline;fill:none;fill-opacity:1;stroke:#ebebeb;stroke-width:1;stroke-linecap:round;stroke-linejoin:round;stroke-miterlimit:4;stroke-dasharray:none;stroke-opacity:1" />
      <path
         sodipodi:nodetypes="cc"
         inkscape:connector-curvature="0"
         id="path888-3-7-6-7-8"
         d="M -124.76709,256.32553 H 686.85843"
         style="display:inline;fill:none;fill-opacity:1;stroke:#ebebeb;stroke-width:1;stroke-linecap:round;stroke-linejoin:round;stroke-miterlimit:4;stroke-dasharray:none;stroke-opacity:1" />
    </g>
    <g
       id="g2354"
       transform="matrix(1,0,0,0.97430725,-37.769014,24.706898)"
       clip-path="url(#clipPath4802)">
      <path
         sodipodi:nodetypes="cc"
         inkscape:connector-curvature="0"
         id="path888"
         d="M -41.839886,353.71825 V -85.647713"
         style="display:inline;fill:none;fill-opacity:1;stroke:#ebebeb;stroke-width:1;stroke-linecap:round;stroke-linejoin:round;stroke-miterlimit:4;stroke-dasharray:none;stroke-opacity:1" />
      <path
         sodipodi:nodetypes="cc"
         inkscape:connector-curvature="0"
         id="path888-3"
         d="M -18.692379,353.16079 V -86.205198"
         style="display:inline;fill:none;fill-opacity:1;stroke:#ebebeb;stroke-width:1;stroke-linecap:round;stroke-linejoin:round;stroke-miterlimit:4;stroke-dasharray:none;stroke-opacity:1" />
      <path
         sodipodi:nodetypes="cc"
         inkscape:connector-curvature="0"
         id="path888-3-1"
         d="M 4.455127,352.60333 V -86.762665"
         style="display:inline;fill:none;fill-opacity:1;stroke:#ebebeb;stroke-width:1;stroke-linecap:round;stroke-linejoin:round;stroke-miterlimit:4;stroke-dasharray:none;stroke-opacity:1" />
      <path
         sodipodi:nodetypes="cc"
         inkscape:connector-curvature="0"
         id="path888-2"
         d="M -88.1349,354.83318 V -84.532791"
         style="display:inline;fill:none;fill-opacity:1;stroke:#ebebeb;stroke-width:1;stroke-linecap:round;stroke-linejoin:round;stroke-miterlimit:4;stroke-dasharray:none;stroke-opacity:1" />
      <path
         sodipodi:nodetypes="cc"
         inkscape:connector-curvature="0"
         id="path888-3-7"
         d="M -64.987393,354.27572 V -85.090277"
         style="display:inline;fill:none;fill-opacity:1;stroke:#ebebeb;stroke-width:1;stroke-linecap:round;stroke-linejoin:round;stroke-miterlimit:4;stroke-dasharray:none;stroke-opacity:1" />
      <path
         sodipodi:nodetypes="cc"
         inkscape:connector-curvature="0"
         id="path888-9"
         d="M 50.750137,351.4884 V -87.877571"
         style="display:inline;fill:none;fill-opacity:1;stroke:#ebebeb;stroke-width:1;stroke-linecap:round;stroke-linejoin:round;stroke-miterlimit:4;stroke-dasharray:none;stroke-opacity:1" />
      <path
         sodipodi:nodetypes="cc"
         inkscape:connector-curvature="0"
         id="path888-3-3"
         d="M 73.897647,350.93094 V -88.435056"
         style="display:inline;fill:none;fill-opacity:1;stroke:#ebebeb;stroke-width:1;stroke-linecap:round;stroke-linejoin:round;stroke-miterlimit:4;stroke-dasharray:none;stroke-opacity:1" />
      <path
         sodipodi:nodetypes="cc"
         inkscape:connector-curvature="0"
         id="path888-3-1-6"
         d="M 97.045157,350.37348 V -88.992524"
         style="display:inline;fill:none;fill-opacity:1;stroke:#ebebeb;stroke-width:1;stroke-linecap:round;stroke-linejoin:round;stroke-miterlimit:4;stroke-dasharray:none;stroke-opacity:1" />
      <path
         sodipodi:nodetypes="cc"
         inkscape:connector-curvature="0"
         id="path888-3-7-6"
         d="M 27.602637,352.04586 V -87.320135"
         style="display:inline;fill:none;fill-opacity:1;stroke:#ebebeb;stroke-width:1;stroke-linecap:round;stroke-linejoin:round;stroke-miterlimit:4;stroke-dasharray:none;stroke-opacity:1" />
      <path
         sodipodi:nodetypes="cc"
         inkscape:connector-curvature="0"
         id="path888-26"
         d="M 143.34017,349.25855 V -90.107425"
         style="display:inline;fill:none;fill-opacity:1;stroke:#ebebeb;stroke-width:1;stroke-linecap:round;stroke-linejoin:round;stroke-miterlimit:4;stroke-dasharray:none;stroke-opacity:1" />
      <path
         sodipodi:nodetypes="cc"
         inkscape:connector-curvature="0"
         id="path888-3-18"
         d="M 166.48768,348.70109 V -90.664911"
         style="display:inline;fill:none;fill-opacity:1;stroke:#ebebeb;stroke-width:1;stroke-linecap:round;stroke-linejoin:round;stroke-miterlimit:4;stroke-dasharray:none;stroke-opacity:1" />
      <path
         sodipodi:nodetypes="cc"
         inkscape:connector-curvature="0"
         id="path888-3-1-7"
         d="M 189.63517,348.14362 V -91.222378"
         style="display:inline;fill:none;fill-opacity:1;stroke:#ebebeb;stroke-width:1;stroke-linecap:round;stroke-linejoin:round;stroke-miterlimit:4;stroke-dasharray:none;stroke-opacity:1" />
      <path
         sodipodi:nodetypes="cc"
         inkscape:connector-curvature="0"
         id="path888-3-7-2"
         d="M 120.19266,349.81601 V -89.549989"
         style="display:inline;fill:none;fill-opacity:1;stroke:#ebebeb;stroke-width:1;stroke-linecap:round;stroke-linejoin:round;stroke-miterlimit:4;stroke-dasharray:none;stroke-opacity:1" />
      <path
         sodipodi:nodetypes="cc"
         inkscape:connector-curvature="0"
         id="path888-9-0"
         d="M 235.93019,347.0287 V -92.337284"
         style="display:inline;fill:none;fill-opacity:1;stroke:#ebebeb;stroke-width:1;stroke-linecap:round;stroke-linejoin:round;stroke-miterlimit:4;stroke-dasharray:none;stroke-opacity:1" />
      <path
         sodipodi:nodetypes="cc"
         inkscape:connector-curvature="0"
         id="path888-3-3-2"
         d="M 259.07772,346.47123 V -92.894769"
         style="display:inline;fill:none;fill-opacity:1;stroke:#ebebeb;stroke-width:1;stroke-linecap:round;stroke-linejoin:round;stroke-miterlimit:4;stroke-dasharray:none;stroke-opacity:1" />
      <path
         sodipodi:nodetypes="cc"
         inkscape:connector-curvature="0"
         id="path888-3-1-6-3"
         d="M 282.22521,345.91377 V -93.452236"
         style="display:inline;fill:none;fill-opacity:1;stroke:#ebebeb;stroke-width:1;stroke-linecap:round;stroke-linejoin:round;stroke-miterlimit:4;stroke-dasharray:none;stroke-opacity:1" />
      <path
         sodipodi:nodetypes="cc"
         inkscape:connector-curvature="0"
         id="path888-3-7-6-7"
         d="M 212.7827,347.58616 V -91.779848"
         style="display:inline;fill:none;fill-opacity:1;stroke:#ebebeb;stroke-width:1;stroke-linecap:round;stroke-linejoin:round;stroke-miterlimit:4;stroke-dasharray:none;stroke-opacity:1" />
      <path
         sodipodi:nodetypes="cc"
         inkscape:connector-curvature="0"
         id="path888-93"
         d="M 328.52022,344.79885 V -94.56712"
         style="display:inline;fill:none;fill-opacity:1;stroke:#ebebeb;stroke-width:1;stroke-linecap:round;stroke-linejoin:round;stroke-miterlimit:4;stroke-dasharray:none;stroke-opacity:1" />
      <path
         sodipodi:nodetypes="cc"
         inkscape:connector-curvature="0"
         id="path888-3-74"
         d="M 351.66772,344.24138 V -95.124605"
         style="display:inline;fill:none;fill-opacity:1;stroke:#ebebeb;stroke-width:1;stroke-linecap:round;stroke-linejoin:round;stroke-miterlimit:4;stroke-dasharray:none;stroke-opacity:1" />
      <path
         sodipodi:nodetypes="cc"
         inkscape:connector-curvature="0"
         id="path888-3-1-5"
         d="M 374.81523,343.68392 V -95.682072"
         style="display:inline;fill:none;fill-opacity:1;stroke:#ebebeb;stroke-width:1;stroke-linecap:round;stroke-linejoin:round;stroke-miterlimit:4;stroke-dasharray:none;stroke-opacity:1" />
      <path
         sodipodi:nodetypes="cc"
         inkscape:connector-curvature="0"
         id="path888-3-7-4"
         d="M 305.37271,345.35631 V -94.009684"
         style="display:inline;fill:none;fill-opacity:1;stroke:#ebebeb;stroke-width:1;stroke-linecap:round;stroke-linejoin:round;stroke-miterlimit:4;stroke-dasharray:none;stroke-opacity:1" />
      <path
         sodipodi:nodetypes="cc"
         inkscape:connector-curvature="0"
         id="path888-9-7"
         d="M 421.11024,342.56899 V -96.796978"
         style="display:inline;fill:none;fill-opacity:1;stroke:#ebebeb;stroke-width:1;stroke-linecap:round;stroke-linejoin:round;stroke-miterlimit:4;stroke-dasharray:none;stroke-opacity:1" />
      <path
         sodipodi:nodetypes="cc"
         inkscape:connector-curvature="0"
         id="path888-3-3-4"
         d="M 444.25775,342.01153 V -97.354463"
         style="display:inline;fill:none;fill-opacity:1;stroke:#ebebeb;stroke-width:1;stroke-linecap:round;stroke-linejoin:round;stroke-miterlimit:4;stroke-dasharray:none;stroke-opacity:1" />
      <path
         sodipodi:nodetypes="cc"
         inkscape:connector-curvature="0"
         id="path888-3-1-6-4"
         d="M 467.40526,341.45407 V -97.911931"
         style="display:inline;fill:none;fill-opacity:1;stroke:#ebebeb;stroke-width:1;stroke-linecap:round;stroke-linejoin:round;stroke-miterlimit:4;stroke-dasharray:none;stroke-opacity:1" />
      <path
         sodipodi:nodetypes="cc"
         inkscape:connector-curvature="0"
         id="path888-3-7-6-3"
         d="M 397.96274,343.12646 V -96.239542"
         style="display:inline;fill:none;fill-opacity:1;stroke:#ebebeb;stroke-width:1;stroke-linecap:round;stroke-linejoin:round;stroke-miterlimit:4;stroke-dasharray:none;stroke-opacity:1" />
      <path
         sodipodi:nodetypes="cc"
         inkscape:connector-curvature="0"
         id="path888-26-0"
         d="M 513.70027,340.33914 V -99.026832"
         style="display:inline;fill:none;fill-opacity:1;stroke:#ebebeb;stroke-width:1;stroke-linecap:round;stroke-linejoin:round;stroke-miterlimit:4;stroke-dasharray:none;stroke-opacity:1" />
      <path
         sodipodi:nodetypes="cc"
         inkscape:connector-curvature="0"
         id="path888-3-18-7"
         d="M 536.84778,339.78168 V -99.584318"
         style="display:inline;fill:none;fill-opacity:1;stroke:#ebebeb;stroke-width:1;stroke-linecap:round;stroke-linejoin:round;stroke-miterlimit:4;stroke-dasharray:none;stroke-opacity:1" />
      <path
         sodipodi:nodetypes="cc"
         inkscape:connector-curvature="0"
         id="path888-3-1-7-8"
         d="m 559.99527,339.22422 v -439.366"
         style="display:inline;fill:none;fill-opacity:1;stroke:#ebebeb;stroke-width:1;stroke-linecap:round;stroke-linejoin:round;stroke-miterlimit:4;stroke-dasharray:none;stroke-opacity:1" />
      <path
         sodipodi:nodetypes="cc"
         inkscape:connector-curvature="0"
         id="path888-3-7-2-6"
         d="M 490.55276,340.89661 V -98.469396"
         style="display:inline;fill:none;fill-opacity:1;stroke:#ebebeb;stroke-width:1;stroke-linecap:round;stroke-linejoin:round;stroke-miterlimit:4;stroke-dasharray:none;stroke-opacity:1" />
      <path
         sodipodi:nodetypes="cc"
         inkscape:connector-curvature="0"
         id="path888-9-0-8"
         d="M 606.29029,338.10929 V -101.25669"
         style="display:inline;fill:none;fill-opacity:1;stroke:#ebebeb;stroke-width:1;stroke-linecap:round;stroke-linejoin:round;stroke-miterlimit:4;stroke-dasharray:none;stroke-opacity:1" />
      <path
         sodipodi:nodetypes="cc"
         inkscape:connector-curvature="0"
         id="path888-3-3-2-8"
         d="M 629.43782,337.55183 V -101.81418"
         style="display:inline;fill:none;fill-opacity:1;stroke:#ebebeb;stroke-width:1;stroke-linecap:round;stroke-linejoin:round;stroke-miterlimit:4;stroke-dasharray:none;stroke-opacity:1" />
      <path
         sodipodi:nodetypes="cc"
         inkscape:connector-curvature="0"
         id="path888-3-1-6-3-4"
         d="m 652.58531,336.99436 v -439.366"
         style="display:inline;fill:none;fill-opacity:1;stroke:#ebebeb;stroke-width:1;stroke-linecap:round;stroke-linejoin:round;stroke-miterlimit:4;stroke-dasharray:none;stroke-opacity:1" />
      <path
         sodipodi:nodetypes="cc"
         inkscape:connector-curvature="0"
         id="path888-3-7-6-7-3"
         d="m 583.1428,338.66675 v -439.366"
         style="display:inline;fill:none;fill-opacity:1;stroke:#ebebeb;stroke-width:1;stroke-linecap:round;stroke-linejoin:round;stroke-miterlimit:4;stroke-dasharray:none;stroke-opacity:1" />
    </g>
  </g>
  <g
     inkscape:groupmode="layer"
     id="layer5"
     inkscape:label="Layer 2">
    <path
       style="fill:none;stroke:#1babd0;stroke-width:1.4;stroke-linecap:round;stroke-linejoin:round;stroke-opacity:1;stroke-miterlimit:4;stroke-dasharray:none;fill-opacity:0.4509804"
       d="m 118.96835,102.3006 35.68048,-0.16705"
       id="path4309"
       inkscape:connector-curvature="0" />
    <path
       style="fill:none;stroke:#0b478e;stroke-width:1.4;stroke-linecap:round;stroke-linejoin:round;stroke-opacity:1;fill-opacity:0.4509804;stroke-miterlimit:4;stroke-dasharray:none"
       d="M 112.92137,103.63695 38.954532,135.97656"
       id="path4303"
       inkscape:connector-curvature="0" />
    <path
       style="fill:none;stroke:#0b478e;stroke-width:1.4;stroke-linecap:round;stroke-linejoin:round;stroke-opacity:1;fill-opacity:0.4509804;stroke-miterlimit:4;stroke-dasharray:none"
       d="m 21.733631,134.02405 1.086681,7.98475"
       id="path4305"
       inkscape:connector-curvature="0" />
    <path
       style="fill:none;stroke:#0b478e;stroke-width:1.4;stroke-linecap:round;stroke-linejoin:round;stroke-opacity:1;fill-opacity:0.4509804;stroke-miterlimit:4;stroke-dasharray:none"
       d="m 20.505208,136.00843 c 0.283482,-1.84264 4.110491,-4.53572 5.338914,-1.51191 1.228423,3.02381 -1.228423,4.8192 -2.598587,4.20499 -1.370163,-0.61422 4.346725,2.17336 4.724704,3.54352"
       id="path4307"
       inkscape:connector-curvature="0" />
    <circle
       style="opacity:1;fill:none;fill-opacity:0.43529412;stroke:#000029;stroke-width:1.70000005;stroke-linecap:round;stroke-linejoin:round;stroke-miterlimit:4;stroke-dasharray:none;stroke-dashoffset:0;stroke-opacity:1;paint-order:stroke markers fill"
       id="path4289"
       cx="116.38638"
       cy="103.31825"
       r="86.595329" />
    <circle
       style="opacity:1;fill:none;fill-opacity:0.43529412;stroke:#000029;stroke-width:1.69999993;stroke-linecap:round;stroke-linejoin:round;stroke-miterlimit:4;stroke-dasharray:10.19999968, 10.19999968;stroke-dashoffset:0;stroke-opacity:1;paint-order:stroke markers fill"
       id="path4291"
       cx="116.35992"
       cy="103.03417"
       r="38.695312" />
    <circle
       style="opacity:1;fill:none;fill-opacity:0.43529412;stroke:#000029;stroke-width:1.69999995;stroke-linecap:round;stroke-linejoin:round;stroke-miterlimit:4;stroke-dasharray:none;stroke-dashoffset:0;stroke-opacity:1;paint-order:stroke markers fill"
       id="path4295"
       cx="115.92057"
       cy="102.20319"
       r="2.5277159" />
    <path
       style="fill:none;stroke:#000000;stroke-width:1.4;stroke-linecap:round;stroke-linejoin:round;stroke-opacity:1;stroke-miterlimit:4;stroke-dasharray:none"
       d="m 110.13281,107.94369 c 2.26786,0.16537 2.74033,0.16537 2.62221,0.70871 -0.11812,0.54334 -2.62221,3.75614 -1.70089,4.13411 0.92132,0.37798 2.33873,-0.23623 2.33873,-0.23623"
       id="path4297"
       inkscape:connector-curvature="0" />
    <path
       style="fill:none;stroke:#000000;stroke-width:1.4;stroke-linecap:round;stroke-linejoin:round;stroke-opacity:1;stroke-miterlimit:4;stroke-dasharray:none"
       d="m 109.58947,111.3691 3.63802,-0.44884"
       id="path4299"
       inkscape:connector-curvature="0" />
    <path
       style="fill:none;stroke:#000000;stroke-width:1.4;stroke-linecap:round;stroke-linejoin:round;stroke-opacity:1;stroke-miterlimit:4;stroke-dasharray:none"
       d="m 115.56622,111.79433 c -1.03944,0.68508 -0.75595,2.07886 -0.33073,2.3151 0.42522,0.23624 2.66946,0.0472 2.24423,-1.25205 -0.42522,-1.29929 -0.99218,-1.1103 -1.9135,-1.06305 z"
       id="path4301"
       inkscape:connector-curvature="0" />
    <path
       style="fill:none;stroke:#1babd0;stroke-width:1.4;stroke-linecap:round;stroke-linejoin:round;stroke-opacity:1;stroke-miterlimit:4;stroke-dasharray:none;fill-opacity:0.4509804"
       d="m 144.49259,101.29834 c 9.6217,-10.72419 58.66961,-29.734854 82.76559,-22.836788"
       id="path4311"
       inkscape:connector-curvature="0" />
    <path
       style="fill:none;stroke:#1babd0;stroke-width:1.4;stroke-linecap:round;stroke-linejoin:round;stroke-opacity:1;stroke-miterlimit:4;stroke-dasharray:none;fill-opacity:0.4509804"
       d="m 237.77065,81.579854 c 0,0 2.14974,4.393972 1.81901,4.51209 -0.33073,0.118118 -2.57497,-5.008184 1.70089,-5.315288"
       id="path4313"
       inkscape:connector-curvature="0" />
    <path
       style="fill:none;stroke:#1babd0;stroke-width:1.4;stroke-linecap:round;stroke-linejoin:round;stroke-opacity:1;stroke-miterlimit:4;stroke-dasharray:none;fill-opacity:0.4509804"
       d="m 244.4561,82.548419 c 0.0945,0 2.17336,-0.330729 2.17336,-0.330729"
       id="path4315"
       inkscape:connector-curvature="0" />
    <path
       style="fill:none;stroke:#1babd0;stroke-width:1.4;stroke-linecap:round;stroke-linejoin:round;stroke-opacity:1;stroke-miterlimit:4;stroke-dasharray:none;fill-opacity:0.4509804"
       d="m 244.83408,84.414676 2.69308,-0.25986"
       id="path4317"
       inkscape:connector-curvature="0" />
    <path
       style="fill:none;stroke:#1babd0;stroke-width:1.4;stroke-linecap:round;stroke-linejoin:round;stroke-opacity:1;stroke-miterlimit:4;stroke-dasharray:none;fill-opacity:0.4509804"
       d="m 252.96056,83.398864 c 3.85063,-0.755951 7.27604,-0.330729 7.27604,-0.330729"
       id="path4319"
       inkscape:connector-curvature="0" />
    <path
       style="fill:none;stroke:#1babd0;stroke-width:1.4;stroke-linecap:round;stroke-linejoin:round;stroke-opacity:1;stroke-miterlimit:4;stroke-dasharray:none;fill-opacity:0.4509804"
       d="m 254.94494,78.319809 c 2.07887,-1.086681 2.66946,-4.346726 3.2128,-4.11049 0.54334,0.236236 -0.70871,3.685267 1.08668,6.401972"
       id="path4321"
       inkscape:connector-curvature="0" />
    <path
       style="fill:none;stroke:#1babd0;stroke-width:1.4;stroke-linecap:round;stroke-linejoin:round;stroke-opacity:1;stroke-miterlimit:4;stroke-dasharray:none;fill-opacity:0.4509804"
       d="m 251.73214,95.801208 c 1.81901,-0.519716 2.74033,-2.220611 0.92132,-4.488466 -1.81901,-2.267857 2.008,-5.78776 4.01599,-4.559339 2.008,1.228423 2.83482,5.457031 -4.01599,2.834822"
       id="path4323"
       inkscape:connector-curvature="0" />
    <path
       style="fill:none;stroke:#c3e2fd;stroke-width:4;stroke-linecap:round;stroke-linejoin:round;stroke-opacity:1;stroke-miterlimit:4;stroke-dasharray:none;fill-opacity:0.4509804"
       d="m 48.002975,139.22122 28.064732,-15.875"
       id="path4327"
       inkscape:connector-curvature="0" />
    <path
       style="fill:none;stroke:#c3e2fd;stroke-width:4;stroke-linecap:round;stroke-linejoin:round;stroke-opacity:1;stroke-miterlimit:4;stroke-dasharray:none;fill-opacity:0.4509804"
       d="M 83.15476,132.70113 56.223958,151.69444"
       id="path4329"
       inkscape:connector-curvature="0" />
    <path
       style="fill:none;stroke:#c3e2fd;stroke-width:4;stroke-linecap:round;stroke-linejoin:round;stroke-opacity:1;stroke-miterlimit:4;stroke-dasharray:none;fill-opacity:0.4509804"
       d="M 66.334822,161.89979 86.556547,142.52852"
       id="path4331"
       inkscape:connector-curvature="0" />
    <path
       style="fill:none;stroke:#c3e2fd;stroke-width:4;stroke-linecap:round;stroke-linejoin:round;stroke-opacity:1;stroke-miterlimit:4;stroke-dasharray:none;fill-opacity:0.4509804"
       d="M 79.280506,172.48313 98.462797,144.04042"
       id="path4333"
       inkscape:connector-curvature="0" />
    <path
       style="fill:none;stroke:#c3e2fd;stroke-width:4;stroke-linecap:round;stroke-linejoin:round;stroke-opacity:1;stroke-miterlimit:4;stroke-dasharray:none;fill-opacity:0.4509804"
       d="m 96.100446,178.24727 9.638394,-29.38765"
       id="path4335"
       inkscape:connector-curvature="0" />
    <path
       style="fill:none;stroke:#c3e2fd;stroke-width:4;stroke-linecap:round;stroke-linejoin:round;stroke-opacity:1;stroke-miterlimit:4;stroke-dasharray:none;fill-opacity:0.4509804"
       d="m 118.59003,149.1431 0.56696,35.52976"
       id="path4337"
       inkscape:connector-curvature="0" />
    <path
       style="fill:none;stroke:#c3e2fd;stroke-width:4;stroke-linecap:round;stroke-linejoin:round;stroke-opacity:1;stroke-miterlimit:4;stroke-dasharray:none;fill-opacity:0.4509804"
       d="m 136.07143,177.6803 -6.14212,-28.82068"
       id="path4339"
       inkscape:connector-curvature="0" />
    <path
       style="fill:none;stroke:#c3e2fd;stroke-width:4;stroke-linecap:round;stroke-linejoin:round;stroke-opacity:1;stroke-miterlimit:4;stroke-dasharray:none;fill-opacity:0.4509804"
       d="m 140.79613,144.41839 11.24479,32.88393"
       id="path4341"
       inkscape:connector-curvature="0" />
    <path
       style="fill:none;stroke:#c3e2fd;stroke-width:4;stroke-linecap:round;stroke-linejoin:round;stroke-opacity:1;stroke-miterlimit:4;stroke-dasharray:none;fill-opacity:0.4509804"
       d="m 148.63914,139.78819 20.5997,21.54464"
       id="path4343"
       inkscape:connector-curvature="0" />
    <path
       style="fill:none;stroke:#c3e2fd;stroke-width:4;stroke-linecap:round;stroke-linejoin:round;stroke-opacity:1;stroke-miterlimit:4;stroke-dasharray:none;fill-opacity:0.4509804"
       d="m 154.68675,128.4489 24.47396,19.27679"
       id="path4345"
       inkscape:connector-curvature="0" />
    <path
       style="fill:none;stroke:#c3e2fd;stroke-width:4;stroke-linecap:round;stroke-linejoin:round;stroke-opacity:1;stroke-miterlimit:4;stroke-dasharray:none;fill-opacity:0.4509804"
       d="m 162.15178,116.07018 23.907,8.31548"
       id="path4347"
       inkscape:connector-curvature="0" />
    <path
       style="fill:none;stroke:#c3e2fd;stroke-width:4;stroke-linecap:round;stroke-linejoin:round;stroke-opacity:1;stroke-miterlimit:4;stroke-dasharray:none;fill-opacity:0.4509804"
       d="m 163.19122,103.31349 h 31.93899"
       id="path4349"
       inkscape:connector-curvature="0" />
    <path
       style="fill:none;stroke:#c3e2fd;stroke-width:4;stroke-linecap:round;stroke-linejoin:round;stroke-opacity:1;stroke-miterlimit:4;stroke-dasharray:none;fill-opacity:0.4509804"
       d="M 154.78125,80.351433 178.87723,67.21676"
       id="path4351"
       inkscape:connector-curvature="0" />
    <path
       style="fill:none;stroke:#c3e2fd;stroke-width:4;stroke-linecap:round;stroke-linejoin:round;stroke-opacity:1;stroke-miterlimit:4;stroke-dasharray:none;fill-opacity:0.4509804"
       d="M 147.6942,70.902027 171.03422,52.75917"
       id="path4353"
       inkscape:connector-curvature="0" />
    <path
       style="fill:none;stroke:#c3e2fd;stroke-width:4;stroke-linecap:round;stroke-linejoin:round;stroke-opacity:1;stroke-miterlimit:4;stroke-dasharray:none;fill-opacity:0.4509804"
       d="M 139.37872,63.153517 156.48214,43.120778"
       id="path4355"
       inkscape:connector-curvature="0" />
    <path
       style="fill:none;stroke:#c3e2fd;stroke-width:4;stroke-linecap:round;stroke-linejoin:round;stroke-opacity:1;stroke-miterlimit:4;stroke-dasharray:none;fill-opacity:0.4509804"
       d="m 131.15774,57.767354 8.31547,-26.552826"
       id="path4357"
       inkscape:connector-curvature="0" />
    <path
       style="fill:none;stroke:#c3e2fd;stroke-width:4;stroke-linecap:round;stroke-linejoin:round;stroke-opacity:1;stroke-miterlimit:4;stroke-dasharray:none;fill-opacity:0.4509804"
       d="M 120.29092,54.743545 119.91295,27.340271"
       id="path4359"
       inkscape:connector-curvature="0" />
    <path
       style="fill:none;stroke:#c3e2fd;stroke-width:4;stroke-linecap:round;stroke-linejoin:round;stroke-opacity:1;stroke-miterlimit:4;stroke-dasharray:none;fill-opacity:0.4509804"
       d="m 108.95163,57.956343 c -0.0945,-0.377975 -6.89806,-29.387648 -6.89806,-29.387648"
       id="path4361"
       inkscape:connector-curvature="0" />
    <path
       style="fill:none;stroke:#c3e2fd;stroke-width:4;stroke-linecap:round;stroke-linejoin:round;stroke-opacity:1;stroke-miterlimit:4;stroke-dasharray:none;fill-opacity:0.4509804"
       d="M 93.738093,59.657236 83.910714,33.860361"
       id="path4363"
       inkscape:connector-curvature="0" />
    <path
       style="fill:none;stroke:#c3e2fd;stroke-width:4;stroke-linecap:round;stroke-linejoin:round;stroke-opacity:1;stroke-miterlimit:4;stroke-dasharray:none;fill-opacity:0.4509804"
       d="M 84.005207,72.224944 C 83.721725,71.752475 66.334822,48.412444 66.334822,48.412444"
       id="path4365"
       inkscape:connector-curvature="0" />
    <path
       style="fill:none;stroke:#c3e2fd;stroke-width:4;stroke-linecap:round;stroke-linejoin:round;stroke-opacity:1;stroke-miterlimit:4;stroke-dasharray:none;fill-opacity:0.4509804"
       d="M 76.256697,80.445926 C 75.595238,79.973455 48.947916,62.681045 48.947916,62.681045"
       id="path4367"
       inkscape:connector-curvature="0" />
    <path
       style="fill:none;stroke:#c3e2fd;stroke-width:4;stroke-linecap:round;stroke-linejoin:round;stroke-opacity:1;stroke-miterlimit:4;stroke-dasharray:none;fill-opacity:0.4509804"
       d="M 72.571427,96.41542 40.63244,92.352176"
       id="path4369"
       inkscape:connector-curvature="0" />
    <path
       style="fill:none;stroke:#c3e2fd;stroke-width:4;stroke-linecap:round;stroke-linejoin:round;stroke-opacity:1;stroke-miterlimit:4;stroke-dasharray:none;fill-opacity:0.4509804"
       d="M 71.909968,104.06944 38.0811,106.80977"
       id="path4371"
       inkscape:connector-curvature="0" />
    <path
       style="fill:none;stroke:#c3e2fd;stroke-width:4;stroke-linecap:round;stroke-linejoin:round;stroke-opacity:1;stroke-miterlimit:4;stroke-dasharray:none;fill-opacity:0.4509804"
       d="m 71.815475,113.42435 -34.11235,6.04762"
       id="path4373"
       inkscape:connector-curvature="0" />
  </g>
</svg>
