<?xml version="1.0" encoding="UTF-8" standalone="no"?>
<!-- Created with Inkscape (http://www.inkscape.org/) -->

<svg
   xmlns:dc="http://purl.org/dc/elements/1.1/"
   xmlns:cc="http://creativecommons.org/ns#"
   xmlns:rdf="http://www.w3.org/1999/02/22-rdf-syntax-ns#"
   xmlns:svg="http://www.w3.org/2000/svg"
   xmlns="http://www.w3.org/2000/svg"
   xmlns:sodipodi="http://sodipodi.sourceforge.net/DTD/sodipodi-0.dtd"
   xmlns:inkscape="http://www.inkscape.org/namespaces/inkscape"
   width="222.5889mm"
   height="202.49445mm"
   viewBox="0 0 222.5889 202.49445"
   version="1.1"
   id="svg3108"
   inkscape:version="0.92.3 (2405546, 2018-03-11)"
   sodipodi:docname="morenasatz.svg">
  <defs
     id="defs3102">
    <clipPath
       clipPathUnits="userSpaceOnUse"
       id="clipPath3838">
      <rect
         style="opacity:1;fill:none;fill-opacity:1;stroke:#167ffb;stroke-width:1.21571922;stroke-linecap:round;stroke-linejoin:round;stroke-miterlimit:4;stroke-dasharray:none;stroke-dashoffset:0;stroke-opacity:1;paint-order:stroke markers fill"
         id="rect3840"
         width="222.25"
         height="207.16183"
         x="6.5897083"
         y="-26.608234" />
    </clipPath>
    <clipPath
       clipPathUnits="userSpaceOnUse"
       id="clipPath3842">
      <rect
         style="opacity:1;fill:none;fill-opacity:1;stroke:#167ffb;stroke-width:1.20000005;stroke-linecap:round;stroke-linejoin:round;stroke-miterlimit:4;stroke-dasharray:none;stroke-dashoffset:0;stroke-opacity:1;paint-order:stroke markers fill"
         id="rect3844"
         width="222.25"
         height="201.83928"
         x="6.5897083"
         y="-16.807951" />
    </clipPath>
  </defs>
  <sodipodi:namedview
     id="base"
     pagecolor="#ffffff"
     bordercolor="#666666"
     borderopacity="1.0"
     inkscape:pageopacity="0.0"
     inkscape:pageshadow="2"
     inkscape:zoom="0.7"
     inkscape:cx="506.52818"
     inkscape:cy="481.42832"
     inkscape:document-units="mm"
     inkscape:current-layer="layer1"
     showgrid="false"
     fit-margin-top="0"
     fit-margin-left="0"
     fit-margin-right="0"
     fit-margin-bottom="0"
     inkscape:snap-global="true"
     inkscape:window-width="1341"
     inkscape:window-height="1015"
     inkscape:window-x="0"
     inkscape:window-y="0"
     inkscape:window-maximized="0" />
  <metadata
     id="metadata3105">
    <rdf:RDF>
      <cc:Work
         rdf:about="">
        <dc:format>image/svg+xml</dc:format>
        <dc:type
           rdf:resource="http://purl.org/dc/dcmitype/StillImage" />
        <dc:title></dc:title>
      </cc:Work>
    </rdf:RDF>
  </metadata>
  <g
     inkscape:label="Layer 1"
     inkscape:groupmode="layer"
     id="layer1"
     transform="translate(20.461117,-69.508736)"
     style="display:inline;opacity:1">
    <g
       transform="translate(-27.050825,86.215888)"
       id="g2450"
       clip-path="url(#clipPath3842)">
      <path
         sodipodi:nodetypes="cc"
         inkscape:connector-curvature="0"
         id="path888-5"
         d="M -136.09469,1.702951 H 675.53076"
         style="display:inline;fill:none;fill-opacity:1;stroke:#ebebeb;stroke-width:1;stroke-linecap:round;stroke-linejoin:round;stroke-miterlimit:4;stroke-dasharray:none;stroke-opacity:1" />
      <path
         sodipodi:nodetypes="cc"
         inkscape:connector-curvature="0"
         id="path888-3-9"
         d="M -135.06491,24.850458 H 676.56058"
         style="display:inline;fill:none;fill-opacity:1;stroke:#ebebeb;stroke-width:1;stroke-linecap:round;stroke-linejoin:round;stroke-miterlimit:4;stroke-dasharray:none;stroke-opacity:1" />
      <path
         sodipodi:nodetypes="cc"
         inkscape:connector-curvature="0"
         id="path888-3-1-2"
         d="m -134.03514,47.997965 h 811.6255"
         style="display:inline;fill:none;fill-opacity:1;stroke:#ebebeb;stroke-width:1;stroke-linecap:round;stroke-linejoin:round;stroke-miterlimit:4;stroke-dasharray:none;stroke-opacity:1" />
      <path
         sodipodi:nodetypes="cc"
         inkscape:connector-curvature="0"
         id="path888-2-2"
         d="M -138.15426,-44.592067 H 673.47119"
         style="display:inline;fill:none;fill-opacity:1;stroke:#ebebeb;stroke-width:1;stroke-linecap:round;stroke-linejoin:round;stroke-miterlimit:4;stroke-dasharray:none;stroke-opacity:1" />
      <path
         sodipodi:nodetypes="cc"
         inkscape:connector-curvature="0"
         id="path888-3-7-8"
         d="M -137.12448,-21.444556 H 674.50101"
         style="display:inline;fill:none;fill-opacity:1;stroke:#ebebeb;stroke-width:1;stroke-linecap:round;stroke-linejoin:round;stroke-miterlimit:4;stroke-dasharray:none;stroke-opacity:1" />
      <path
         sodipodi:nodetypes="cc"
         inkscape:connector-curvature="0"
         id="path888-9-9"
         d="M -131.97557,94.292972 H 679.64988"
         style="display:inline;fill:none;fill-opacity:1;stroke:#ebebeb;stroke-width:1;stroke-linecap:round;stroke-linejoin:round;stroke-miterlimit:4;stroke-dasharray:none;stroke-opacity:1" />
      <path
         sodipodi:nodetypes="cc"
         inkscape:connector-curvature="0"
         id="path888-3-3-7"
         d="M -130.94578,117.44048 H 680.67969"
         style="display:inline;fill:none;fill-opacity:1;stroke:#ebebeb;stroke-width:1;stroke-linecap:round;stroke-linejoin:round;stroke-miterlimit:4;stroke-dasharray:none;stroke-opacity:1" />
      <path
         sodipodi:nodetypes="cc"
         inkscape:connector-curvature="0"
         id="path888-3-1-6-36"
         d="M -129.91601,140.58799 H 681.70952"
         style="display:inline;fill:none;fill-opacity:1;stroke:#ebebeb;stroke-width:1;stroke-linecap:round;stroke-linejoin:round;stroke-miterlimit:4;stroke-dasharray:none;stroke-opacity:1" />
      <path
         sodipodi:nodetypes="cc"
         inkscape:connector-curvature="0"
         id="path888-3-7-6-1"
         d="M -133.00534,71.145472 H 678.62017"
         style="display:inline;fill:none;fill-opacity:1;stroke:#ebebeb;stroke-width:1;stroke-linecap:round;stroke-linejoin:round;stroke-miterlimit:4;stroke-dasharray:none;stroke-opacity:1" />
      <path
         sodipodi:nodetypes="cc"
         inkscape:connector-curvature="0"
         id="path888-26-2"
         d="M -127.85644,186.883 H 683.76904"
         style="display:inline;fill:none;fill-opacity:1;stroke:#ebebeb;stroke-width:1;stroke-linecap:round;stroke-linejoin:round;stroke-miterlimit:4;stroke-dasharray:none;stroke-opacity:1" />
      <path
         sodipodi:nodetypes="cc"
         inkscape:connector-curvature="0"
         id="path888-3-18-9"
         d="M -126.82666,210.03051 H 684.79888"
         style="display:inline;fill:none;fill-opacity:1;stroke:#ebebeb;stroke-width:1;stroke-linecap:round;stroke-linejoin:round;stroke-miterlimit:4;stroke-dasharray:none;stroke-opacity:1" />
      <path
         sodipodi:nodetypes="cc"
         inkscape:connector-curvature="0"
         id="path888-3-1-7-3"
         d="M -125.79688,233.178 H 685.82866"
         style="display:inline;fill:none;fill-opacity:1;stroke:#ebebeb;stroke-width:1;stroke-linecap:round;stroke-linejoin:round;stroke-miterlimit:4;stroke-dasharray:none;stroke-opacity:1" />
      <path
         sodipodi:nodetypes="cc"
         inkscape:connector-curvature="0"
         id="path888-3-7-2-1"
         d="M -128.88623,163.73549 H 682.73931"
         style="display:inline;fill:none;fill-opacity:1;stroke:#ebebeb;stroke-width:1;stroke-linecap:round;stroke-linejoin:round;stroke-miterlimit:4;stroke-dasharray:none;stroke-opacity:1" />
      <path
         sodipodi:nodetypes="cc"
         inkscape:connector-curvature="0"
         id="path888-9-0-9"
         d="M -123.73731,279.47302 H 687.88818"
         style="display:inline;fill:none;fill-opacity:1;stroke:#ebebeb;stroke-width:1;stroke-linecap:round;stroke-linejoin:round;stroke-miterlimit:4;stroke-dasharray:none;stroke-opacity:1" />
      <path
         sodipodi:nodetypes="cc"
         inkscape:connector-curvature="0"
         id="path888-3-3-2-4"
         d="M -122.70754,302.62055 H 688.918"
         style="display:inline;fill:none;fill-opacity:1;stroke:#ebebeb;stroke-width:1;stroke-linecap:round;stroke-linejoin:round;stroke-miterlimit:4;stroke-dasharray:none;stroke-opacity:1" />
      <path
         sodipodi:nodetypes="cc"
         inkscape:connector-curvature="0"
         id="path888-3-1-6-3-7"
         d="M -121.67774,325.76804 H 689.94778"
         style="display:inline;fill:none;fill-opacity:1;stroke:#ebebeb;stroke-width:1;stroke-linecap:round;stroke-linejoin:round;stroke-miterlimit:4;stroke-dasharray:none;stroke-opacity:1" />
      <path
         sodipodi:nodetypes="cc"
         inkscape:connector-curvature="0"
         id="path888-3-7-6-7-8"
         d="M -124.76709,256.32553 H 686.85843"
         style="display:inline;fill:none;fill-opacity:1;stroke:#ebebeb;stroke-width:1;stroke-linecap:round;stroke-linejoin:round;stroke-miterlimit:4;stroke-dasharray:none;stroke-opacity:1" />
    </g>
    <g
       id="g2354"
       transform="matrix(1,0,0,0.97430725,-27.050825,95.332531)"
       clip-path="url(#clipPath3838)">
      <path
         sodipodi:nodetypes="cc"
         inkscape:connector-curvature="0"
         id="path888"
         d="M -41.839886,353.71825 V -85.647713"
         style="display:inline;fill:none;fill-opacity:1;stroke:#ebebeb;stroke-width:1;stroke-linecap:round;stroke-linejoin:round;stroke-miterlimit:4;stroke-dasharray:none;stroke-opacity:1" />
      <path
         sodipodi:nodetypes="cc"
         inkscape:connector-curvature="0"
         id="path888-3"
         d="M -18.692379,353.16079 V -86.205198"
         style="display:inline;fill:none;fill-opacity:1;stroke:#ebebeb;stroke-width:1;stroke-linecap:round;stroke-linejoin:round;stroke-miterlimit:4;stroke-dasharray:none;stroke-opacity:1" />
      <path
         sodipodi:nodetypes="cc"
         inkscape:connector-curvature="0"
         id="path888-3-1"
         d="M 4.455127,352.60333 V -86.762665"
         style="display:inline;fill:none;fill-opacity:1;stroke:#ebebeb;stroke-width:1;stroke-linecap:round;stroke-linejoin:round;stroke-miterlimit:4;stroke-dasharray:none;stroke-opacity:1" />
      <path
         sodipodi:nodetypes="cc"
         inkscape:connector-curvature="0"
         id="path888-2"
         d="M -88.1349,354.83318 V -84.532791"
         style="display:inline;fill:none;fill-opacity:1;stroke:#ebebeb;stroke-width:1;stroke-linecap:round;stroke-linejoin:round;stroke-miterlimit:4;stroke-dasharray:none;stroke-opacity:1" />
      <path
         sodipodi:nodetypes="cc"
         inkscape:connector-curvature="0"
         id="path888-3-7"
         d="M -64.987393,354.27572 V -85.090277"
         style="display:inline;fill:none;fill-opacity:1;stroke:#ebebeb;stroke-width:1;stroke-linecap:round;stroke-linejoin:round;stroke-miterlimit:4;stroke-dasharray:none;stroke-opacity:1" />
      <path
         sodipodi:nodetypes="cc"
         inkscape:connector-curvature="0"
         id="path888-9"
         d="M 50.750137,351.4884 V -87.877571"
         style="display:inline;fill:none;fill-opacity:1;stroke:#ebebeb;stroke-width:1;stroke-linecap:round;stroke-linejoin:round;stroke-miterlimit:4;stroke-dasharray:none;stroke-opacity:1" />
      <path
         sodipodi:nodetypes="cc"
         inkscape:connector-curvature="0"
         id="path888-3-3"
         d="M 73.897647,350.93094 V -88.435056"
         style="display:inline;fill:none;fill-opacity:1;stroke:#ebebeb;stroke-width:1;stroke-linecap:round;stroke-linejoin:round;stroke-miterlimit:4;stroke-dasharray:none;stroke-opacity:1" />
      <path
         sodipodi:nodetypes="cc"
         inkscape:connector-curvature="0"
         id="path888-3-1-6"
         d="M 97.045157,350.37348 V -88.992524"
         style="display:inline;fill:none;fill-opacity:1;stroke:#ebebeb;stroke-width:1;stroke-linecap:round;stroke-linejoin:round;stroke-miterlimit:4;stroke-dasharray:none;stroke-opacity:1" />
      <path
         sodipodi:nodetypes="cc"
         inkscape:connector-curvature="0"
         id="path888-3-7-6"
         d="M 27.602637,352.04586 V -87.320135"
         style="display:inline;fill:none;fill-opacity:1;stroke:#ebebeb;stroke-width:1;stroke-linecap:round;stroke-linejoin:round;stroke-miterlimit:4;stroke-dasharray:none;stroke-opacity:1" />
      <path
         sodipodi:nodetypes="cc"
         inkscape:connector-curvature="0"
         id="path888-26"
         d="M 143.34017,349.25855 V -90.107425"
         style="display:inline;fill:none;fill-opacity:1;stroke:#ebebeb;stroke-width:1;stroke-linecap:round;stroke-linejoin:round;stroke-miterlimit:4;stroke-dasharray:none;stroke-opacity:1" />
      <path
         sodipodi:nodetypes="cc"
         inkscape:connector-curvature="0"
         id="path888-3-18"
         d="M 166.48768,348.70109 V -90.664911"
         style="display:inline;fill:none;fill-opacity:1;stroke:#ebebeb;stroke-width:1;stroke-linecap:round;stroke-linejoin:round;stroke-miterlimit:4;stroke-dasharray:none;stroke-opacity:1" />
      <path
         sodipodi:nodetypes="cc"
         inkscape:connector-curvature="0"
         id="path888-3-1-7"
         d="M 189.63517,348.14362 V -91.222378"
         style="display:inline;fill:none;fill-opacity:1;stroke:#ebebeb;stroke-width:1;stroke-linecap:round;stroke-linejoin:round;stroke-miterlimit:4;stroke-dasharray:none;stroke-opacity:1" />
      <path
         sodipodi:nodetypes="cc"
         inkscape:connector-curvature="0"
         id="path888-3-7-2"
         d="M 120.19266,349.81601 V -89.549989"
         style="display:inline;fill:none;fill-opacity:1;stroke:#ebebeb;stroke-width:1;stroke-linecap:round;stroke-linejoin:round;stroke-miterlimit:4;stroke-dasharray:none;stroke-opacity:1" />
      <path
         sodipodi:nodetypes="cc"
         inkscape:connector-curvature="0"
         id="path888-9-0"
         d="M 235.93019,347.0287 V -92.337284"
         style="display:inline;fill:none;fill-opacity:1;stroke:#ebebeb;stroke-width:1;stroke-linecap:round;stroke-linejoin:round;stroke-miterlimit:4;stroke-dasharray:none;stroke-opacity:1" />
      <path
         sodipodi:nodetypes="cc"
         inkscape:connector-curvature="0"
         id="path888-3-3-2"
         d="M 259.07772,346.47123 V -92.894769"
         style="display:inline;fill:none;fill-opacity:1;stroke:#ebebeb;stroke-width:1;stroke-linecap:round;stroke-linejoin:round;stroke-miterlimit:4;stroke-dasharray:none;stroke-opacity:1" />
      <path
         sodipodi:nodetypes="cc"
         inkscape:connector-curvature="0"
         id="path888-3-1-6-3"
         d="M 282.22521,345.91377 V -93.452236"
         style="display:inline;fill:none;fill-opacity:1;stroke:#ebebeb;stroke-width:1;stroke-linecap:round;stroke-linejoin:round;stroke-miterlimit:4;stroke-dasharray:none;stroke-opacity:1" />
      <path
         sodipodi:nodetypes="cc"
         inkscape:connector-curvature="0"
         id="path888-3-7-6-7"
         d="M 212.7827,347.58616 V -91.779848"
         style="display:inline;fill:none;fill-opacity:1;stroke:#ebebeb;stroke-width:1;stroke-linecap:round;stroke-linejoin:round;stroke-miterlimit:4;stroke-dasharray:none;stroke-opacity:1" />
      <path
         sodipodi:nodetypes="cc"
         inkscape:connector-curvature="0"
         id="path888-93"
         d="M 328.52022,344.79885 V -94.56712"
         style="display:inline;fill:none;fill-opacity:1;stroke:#ebebeb;stroke-width:1;stroke-linecap:round;stroke-linejoin:round;stroke-miterlimit:4;stroke-dasharray:none;stroke-opacity:1" />
      <path
         sodipodi:nodetypes="cc"
         inkscape:connector-curvature="0"
         id="path888-3-74"
         d="M 351.66772,344.24138 V -95.124605"
         style="display:inline;fill:none;fill-opacity:1;stroke:#ebebeb;stroke-width:1;stroke-linecap:round;stroke-linejoin:round;stroke-miterlimit:4;stroke-dasharray:none;stroke-opacity:1" />
      <path
         sodipodi:nodetypes="cc"
         inkscape:connector-curvature="0"
         id="path888-3-1-5"
         d="M 374.81523,343.68392 V -95.682072"
         style="display:inline;fill:none;fill-opacity:1;stroke:#ebebeb;stroke-width:1;stroke-linecap:round;stroke-linejoin:round;stroke-miterlimit:4;stroke-dasharray:none;stroke-opacity:1" />
      <path
         sodipodi:nodetypes="cc"
         inkscape:connector-curvature="0"
         id="path888-3-7-4"
         d="M 305.37271,345.35631 V -94.009684"
         style="display:inline;fill:none;fill-opacity:1;stroke:#ebebeb;stroke-width:1;stroke-linecap:round;stroke-linejoin:round;stroke-miterlimit:4;stroke-dasharray:none;stroke-opacity:1" />
      <path
         sodipodi:nodetypes="cc"
         inkscape:connector-curvature="0"
         id="path888-9-7"
         d="M 421.11024,342.56899 V -96.796978"
         style="display:inline;fill:none;fill-opacity:1;stroke:#ebebeb;stroke-width:1;stroke-linecap:round;stroke-linejoin:round;stroke-miterlimit:4;stroke-dasharray:none;stroke-opacity:1" />
      <path
         sodipodi:nodetypes="cc"
         inkscape:connector-curvature="0"
         id="path888-3-3-4"
         d="M 444.25775,342.01153 V -97.354463"
         style="display:inline;fill:none;fill-opacity:1;stroke:#ebebeb;stroke-width:1;stroke-linecap:round;stroke-linejoin:round;stroke-miterlimit:4;stroke-dasharray:none;stroke-opacity:1" />
      <path
         sodipodi:nodetypes="cc"
         inkscape:connector-curvature="0"
         id="path888-3-1-6-4"
         d="M 467.40526,341.45407 V -97.911931"
         style="display:inline;fill:none;fill-opacity:1;stroke:#ebebeb;stroke-width:1;stroke-linecap:round;stroke-linejoin:round;stroke-miterlimit:4;stroke-dasharray:none;stroke-opacity:1" />
      <path
         sodipodi:nodetypes="cc"
         inkscape:connector-curvature="0"
         id="path888-3-7-6-3"
         d="M 397.96274,343.12646 V -96.239542"
         style="display:inline;fill:none;fill-opacity:1;stroke:#ebebeb;stroke-width:1;stroke-linecap:round;stroke-linejoin:round;stroke-miterlimit:4;stroke-dasharray:none;stroke-opacity:1" />
      <path
         sodipodi:nodetypes="cc"
         inkscape:connector-curvature="0"
         id="path888-26-0"
         d="M 513.70027,340.33914 V -99.026832"
         style="display:inline;fill:none;fill-opacity:1;stroke:#ebebeb;stroke-width:1;stroke-linecap:round;stroke-linejoin:round;stroke-miterlimit:4;stroke-dasharray:none;stroke-opacity:1" />
      <path
         sodipodi:nodetypes="cc"
         inkscape:connector-curvature="0"
         id="path888-3-18-7"
         d="M 536.84778,339.78168 V -99.584318"
         style="display:inline;fill:none;fill-opacity:1;stroke:#ebebeb;stroke-width:1;stroke-linecap:round;stroke-linejoin:round;stroke-miterlimit:4;stroke-dasharray:none;stroke-opacity:1" />
      <path
         sodipodi:nodetypes="cc"
         inkscape:connector-curvature="0"
         id="path888-3-1-7-8"
         d="m 559.99527,339.22422 v -439.366"
         style="display:inline;fill:none;fill-opacity:1;stroke:#ebebeb;stroke-width:1;stroke-linecap:round;stroke-linejoin:round;stroke-miterlimit:4;stroke-dasharray:none;stroke-opacity:1" />
      <path
         sodipodi:nodetypes="cc"
         inkscape:connector-curvature="0"
         id="path888-3-7-2-6"
         d="M 490.55276,340.89661 V -98.469396"
         style="display:inline;fill:none;fill-opacity:1;stroke:#ebebeb;stroke-width:1;stroke-linecap:round;stroke-linejoin:round;stroke-miterlimit:4;stroke-dasharray:none;stroke-opacity:1" />
      <path
         sodipodi:nodetypes="cc"
         inkscape:connector-curvature="0"
         id="path888-9-0-8"
         d="M 606.29029,338.10929 V -101.25669"
         style="display:inline;fill:none;fill-opacity:1;stroke:#ebebeb;stroke-width:1;stroke-linecap:round;stroke-linejoin:round;stroke-miterlimit:4;stroke-dasharray:none;stroke-opacity:1" />
      <path
         sodipodi:nodetypes="cc"
         inkscape:connector-curvature="0"
         id="path888-3-3-2-8"
         d="M 629.43782,337.55183 V -101.81418"
         style="display:inline;fill:none;fill-opacity:1;stroke:#ebebeb;stroke-width:1;stroke-linecap:round;stroke-linejoin:round;stroke-miterlimit:4;stroke-dasharray:none;stroke-opacity:1" />
      <path
         sodipodi:nodetypes="cc"
         inkscape:connector-curvature="0"
         id="path888-3-1-6-3-4"
         d="m 652.58531,336.99436 v -439.366"
         style="display:inline;fill:none;fill-opacity:1;stroke:#ebebeb;stroke-width:1;stroke-linecap:round;stroke-linejoin:round;stroke-miterlimit:4;stroke-dasharray:none;stroke-opacity:1" />
      <path
         sodipodi:nodetypes="cc"
         inkscape:connector-curvature="0"
         id="path888-3-7-6-7-3"
         d="m 583.1428,338.66675 v -439.366"
         style="display:inline;fill:none;fill-opacity:1;stroke:#ebebeb;stroke-width:1;stroke-linecap:round;stroke-linejoin:round;stroke-miterlimit:4;stroke-dasharray:none;stroke-opacity:1" />
    </g>
  </g>
  <g
     inkscape:groupmode="layer"
     id="layer6"
     inkscape:label="Layer 2"
     style="display:inline">
    <path
       style="fill:none;stroke:#000000;stroke-width:1.20000005;stroke-linecap:round;stroke-linejoin:round;stroke-miterlimit:4;stroke-dasharray:none;stroke-opacity:1"
       d="M 12.803943,111.07145 206.95181,110.91271"
       id="path3665"
       inkscape:connector-curvature="0"
       sodipodi:nodetypes="cc" />
    <path
       style="fill:none;stroke:#000000;stroke-width:1.20000005;stroke-linecap:round;stroke-linejoin:round;stroke-miterlimit:4;stroke-dasharray:none;stroke-opacity:1"
       d="m 202.34141,105.70095 4.6104,5.21176 -4.54358,5.81311"
       id="path3667"
       inkscape:connector-curvature="0" />
    <path
       style="fill:none;stroke:#000000;stroke-width:1.20000005;stroke-linecap:round;stroke-linejoin:round;stroke-miterlimit:4;stroke-dasharray:none;stroke-opacity:1"
       d="M 90.455706,189.18927 V 6.7444045"
       id="path3669"
       inkscape:connector-curvature="0" />
    <path
       style="fill:none;stroke:#000000;stroke-width:1.20000005;stroke-linecap:round;stroke-linejoin:round;stroke-miterlimit:4;stroke-dasharray:none;stroke-opacity:1"
       d="m 85.845306,14.361586 4.6104,-7.6171815 4.51017,7.4167295"
       id="path3671"
       inkscape:connector-curvature="0" />
    <path
       style="fill:none;stroke:#000000;stroke-width:1.20000005;stroke-linecap:round;stroke-linejoin:round;stroke-miterlimit:4;stroke-dasharray:none;stroke-opacity:1"
       d="m 156.27083,145.82479 c 6.11379,3.0736 10.85782,2.57247 15.06732,1.67043"
       id="path3673"
       inkscape:connector-curvature="0" />
    <path
       style="fill:none;stroke:#000000;stroke-width:1.20000005;stroke-linecap:round;stroke-linejoin:round;stroke-miterlimit:4;stroke-dasharray:none;stroke-opacity:1"
       d="m 176.9174,144.25458 c 1.06907,-0.50113 2.73951,-1.1693 4.57699,-0.93544 1.83747,0.23386 3.40768,0.33408 3.70836,-0.0334"
       id="path3675"
       inkscape:connector-curvature="0" />
    <path
       style="fill:none;stroke:#000000;stroke-width:1.20000005;stroke-linecap:round;stroke-linejoin:round;stroke-miterlimit:4;stroke-dasharray:none;stroke-opacity:1"
       d="m 181.02667,143.45277 c -0.30068,2.3052 -2.2718,10.85782 3.94222,6.5481"
       id="path3677"
       inkscape:connector-curvature="0" />
    <path
       style="fill:none;stroke:#000000;stroke-width:1.20000005;stroke-linecap:round;stroke-linejoin:round;stroke-miterlimit:4;stroke-dasharray:none;stroke-opacity:1"
       d="m 189.81315,141.41484 c -2.23838,6.78196 -2.57247,10.49033 1.36976,11.45918"
       id="path3679"
       inkscape:connector-curvature="0" />
    <path
       style="fill:none;stroke:#000000;stroke-width:1.20000005;stroke-linecap:round;stroke-linejoin:round;stroke-miterlimit:4;stroke-dasharray:none;stroke-opacity:1"
       d="m 201.10529,140.61303 c 2.13816,4.74404 3.27405,7.24969 1.30294,11.96031"
       id="path3681"
       inkscape:connector-curvature="0" />
    <path
       style="fill:none;stroke:#000000;stroke-width:1.20000005;stroke-linecap:round;stroke-linejoin:round;stroke-miterlimit:4;stroke-dasharray:none;stroke-opacity:1"
       d="m 193.68856,143.38595 c -2.13816,3.37428 -0.4009,5.87993 -0.0334,6.21402 0.3675,0.33409 2.80633,1.06908 3.50791,-1.77066 0.70159,-2.83974 0.60136,-3.64155 0.33409,-3.64155 -0.26727,0 -0.10023,4.30972 2.47224,5.34539"
       id="path3683"
       inkscape:connector-curvature="0" />
    <path
       style="fill:none;stroke:#000000;stroke-width:1.20000005;stroke-linecap:round;stroke-linejoin:round;stroke-miterlimit:4;stroke-dasharray:none;stroke-opacity:1"
       d="m 158.8433,43.293512 c 5.27857,-8.819893 12.22758,-9.554885 12.22758,-9.554885"
       id="path3685"
       inkscape:connector-curvature="0" />
    <path
       style="fill:none;stroke:#000000;stroke-width:1.20000005;stroke-linecap:round;stroke-linejoin:round;stroke-miterlimit:4;stroke-dasharray:none;stroke-opacity:1"
       d="m 178.62124,28.259601 c -0.73499,3.608139 -0.46772,4.944486 0.20045,5.679477 0.66818,0.734992 2.87315,-1.202711 3.80859,-3.407685 0.93545,-2.204974 0.80181,-2.405427 0.80181,-2.405427 0,0 -1.06908,3.407687 1.80407,6.681739"
       id="path3687"
       inkscape:connector-curvature="0" />
    <path
       style="fill:none;stroke:#000000;stroke-width:1.20000005;stroke-linecap:round;stroke-linejoin:round;stroke-miterlimit:4;stroke-dasharray:4.80000023, 4.80000023;stroke-dashoffset:0;stroke-opacity:1"
       d="m 115.94654,91.001122 c -0.26727,-11.626225 -8.95353,-33.943229 -2.53906,-49.311226 6.41446,-15.368 34.87867,-27.796032 45.97035,-4.810852 11.09169,22.985179 -1.06907,30.33509 1.46999,43.431298 2.53906,13.096205 4.81085,20.178858 3.8754,24.455168 -0.93544,4.27631 -2.13815,8.41899 -0.93544,13.63074 1.20271,5.21176 2.00452,18.70887 -2.00452,27.52876 -4.00904,8.8199 -3.4745,12.96258 -3.20723,21.1143 0.26727,8.15172 1.46998,18.4416 -5.7463,21.64883 -7.21627,3.20723 -13.22984,9.75534 -20.98066,8.28535 -7.75081,-1.46998 -15.7689,-8.01808 -19.37704,-15.50163 -3.60814,-7.48354 -5.74629,-22.18337 -1.33634,-29.26601 4.40994,-7.08264 5.74629,-14.9671 2.67269,-23.11882 -3.0736,-8.15171 -4.14268,-14.16528 -0.26727,-20.71338 3.87541,-6.54811 2.13816,-10.824424 2.40543,-17.372528 z"
       id="path3689"
       inkscape:connector-curvature="0" />
    <path
       style="fill:none;fill-opacity:0.50588223;stroke:#f39835;stroke-width:1.20000005;stroke-linecap:round;stroke-linejoin:round;stroke-miterlimit:4;stroke-dasharray:none;stroke-opacity:1"
       d="M 157.04911,132.47435 138.33929,80.975091"
       id="path3691"
       inkscape:connector-curvature="0" />
    <path
       style="fill:none;fill-opacity:0.50588223;stroke:#d00a14;stroke-width:1.20000005;stroke-linecap:round;stroke-linejoin:round;stroke-miterlimit:4;stroke-dasharray:none;stroke-opacity:1"
       d="M 126.62202,124.25337 137.96951,81.236785"
       id="path3693"
       inkscape:connector-curvature="0"
       sodipodi:nodetypes="cc" />
    <path
       style="fill:none;fill-opacity:0.50588223;stroke:#167ffb;stroke-width:1.20000005;stroke-linecap:round;stroke-linejoin:round;stroke-miterlimit:4;stroke-dasharray:none;stroke-opacity:1"
       d="m 126.85826,124.27699 30.00435,8.41472"
       id="path3695"
       inkscape:connector-curvature="0"
       sodipodi:nodetypes="cc" />
    <path
       style="fill:none;fill-opacity:0.50588223;stroke:#80c443;stroke-width:1.20000005;stroke-linecap:round;stroke-linejoin:round;stroke-miterlimit:4;stroke-dasharray:none;stroke-opacity:1"
       d="m 130.14523,112.11542 h 18.8425"
       id="path3697"
       inkscape:connector-curvature="0" />
    <path
       style="fill:none;fill-opacity:0.50588223;stroke:#80c443;stroke-width:1.20000005;stroke-linecap:round;stroke-linejoin:round;stroke-miterlimit:4;stroke-dasharray:none;stroke-opacity:1"
       d="m 147.11684,109.00841 c 0,0 1.80407,1.70384 1.87089,3.10701 0.0668,1.40316 -1.10249,3.34087 -1.10249,3.34087"
       id="path3699"
       inkscape:connector-curvature="0" />
    <path
       style="fill:none;fill-opacity:0.50588223;stroke:#80c443;stroke-width:1.20000005;stroke-linecap:round;stroke-linejoin:round;stroke-miterlimit:4;stroke-dasharray:none;stroke-opacity:1"
       d="m 131.84907,109.30909 c 0,0 -1.70384,1.26953 -1.70384,2.80633 0,1.5368 1.30294,3.17382 1.30294,3.17382"
       id="path3701"
       inkscape:connector-curvature="0" />
    <path
       style="fill:none;fill-opacity:1;stroke:#f39835;stroke-width:1.20000005;stroke-linecap:round;stroke-linejoin:round;stroke-miterlimit:4;stroke-dasharray:none;stroke-opacity:1"
       d="m 150.36365,96.566609 c 0.23624,-0.496094 -1.0158,-3.70889 -1.22842,-6.023994 -0.21261,-2.315104 1.58278,-6.165736 2.45685,-5.598774 0.87407,0.566965 0.85044,2.74033 0.54334,3.236423 -0.30711,0.496094 -0.44885,1.063056 -0.44885,1.063056 0,0 2.78758,0.425226 2.26786,1.653646 -0.51972,1.228424 -1.41741,2.031622 -2.74033,0.755955"
       id="path3703"
       inkscape:connector-curvature="0" />
    <path
       style="fill:none;fill-opacity:1;stroke:#167ffb;stroke-width:1.20000005;stroke-linecap:round;stroke-linejoin:round;stroke-miterlimit:4;stroke-dasharray:none;stroke-opacity:1"
       d="m 136.73289,133.11219 c 1.48828,1.2048 3.07106,4.81919 2.8112,5.69326 -0.25986,0.87407 -1.6064,1.46466 -1.84264,-0.21261 -0.23623,-1.67727 2.12612,-4.29948 2.4096,-4.51209"
       id="path3705"
       inkscape:connector-curvature="0" />
    <path
       style="fill:none;fill-opacity:1;stroke:#d00a14;stroke-width:1.20000005;stroke-linecap:round;stroke-linejoin:round;stroke-miterlimit:4;stroke-dasharray:none;stroke-opacity:1"
       d="m 132.05543,94.842094 c -1.55915,-1.015812 -3.40178,-3.850632 -3.87425,-3.803385 -0.47247,0.04725 -1.58278,3.189174 -0.96857,3.638021 0.61422,0.448847 4.96094,-4.464844 5.10268,-4.913691"
       id="path3707"
       inkscape:connector-curvature="0" />
  </g>
</svg>
